<?xml version="1.0" standalone="no"?>
<!DOCTYPE svg PUBLIC "-//W3C//DTD SVG 1.1//EN" "http://www.w3.org/Graphics/SVG/1.1/DTD/svg11.dtd" >
<svg>
<metadata>
Created by FontForge 20090914 at Thu Jun 23 17:39:03 2016
 By www-data
HTF Gotham&#194;&#170; &#194;&#169; 2000 The Hoefler Type Foundry, Inc. Info: www.typography.com
</metadata>
<defs>
<font id="Gotham-Bold" horiz-adv-x="500" >
  <font-face 
    font-family="Gotham"
    font-weight="700"
    font-stretch="normal"
    units-per-em="1000"
    panose-1="2 0 8 3 0 0 0 0 0 0"
    ascent="800"
    descent="-200"
    x-height="535.999"
    cap-height="700"
    bbox="-71 -173 1195 932"
    underline-thickness="20"
    underline-position="-133"
    unicode-range="U+0001-U+2122"
  />
<missing-glyph horiz-adv-x="364" 
d="M33 0v666h265v-666h-265zM66 33h199v600h-199v-600z" />
    <glyph glyph-name=".notdef" horiz-adv-x="364" 
d="M33 0v666h265v-666h-265zM66 33h199v600h-199v-600z" />
    <glyph glyph-name="uni0000" horiz-adv-x="0" 
 />
    <glyph glyph-name="uni0000" horiz-adv-x="0" 
 />
    <glyph glyph-name="uni0001" horiz-adv-x="812" 
d="M114 0v283.999h-75v136h75v280h273c108.667 0 197.834 -33.167 267.501 -99.5s104.5 -149.166 104.5 -248.499v-2c0 -100 -34.833 -183.333 -104.5 -250s-158.834 -100 -267.501 -100h-273zM266 138.999h121c62.667 0 113.5 19.333 152.5 58s58.5 89 58.5 151v2
c0 62 -19.5 112.667 -58.5 152s-89.833 59 -152.5 59h-121v-141h152v-136h-152v-145z" />
    <glyph glyph-name="uni0002" horiz-adv-x="648" 
d="M319 -12c-79.333 0 -145.334 25.168 -198.001 75.501s-79 112.5 -79 186.5v2c0 69.333 21.333 125.666 64 168.999s97.667 65 165 65c42 0 83 -10.667 123 -32l-87 116l-114 -47l-56 75l115 46l-64 86h171l23 -33l100 41l55 -75l-102 -41l81 -115
c31.333 -44.667 53.833 -85.667 67.5 -123s20.5 -77.333 20.5 -120v-2c0 -77.333 -25.667 -142.333 -77 -195s-120.666 -79 -207.999 -79zM323.999 116.001c40 0 72 12.498 96 37.498s36 56.167 36 93.5v2c0 36.667 -12.333 67.334 -37 92.001s-56.667 37 -96 37
c-40 0 -72.167 -12.167 -96.5 -36.5s-36.5 -55.166 -36.5 -92.499v-2c0 -37.333 12.5 -68.5 37.5 -93.5s57.167 -37.5 96.5 -37.5z" />
    <glyph glyph-name="uni0003" horiz-adv-x="649" 
d="M114 0v262l-75 -22v143l75 22v295h152v-249l192 57v-143l-192 -57v-168h351v-140h-503z" />
    <glyph glyph-name="uni0004" horiz-adv-x="362" 
d="M106 0v280l-76 -23v143l76 23v307h150v-263l76 23v-143l-76 -23v-324h-150z" />
    <glyph glyph-name="uni0005" horiz-adv-x="640" 
d="M333 -10c-114.667 0 -213.667 37.332 -297 111.999l91 109c68.667 -56.667 138.334 -85 209.001 -85c31.333 0 56 5.83301 74 17.5s27 27.834 27 48.501v2c0 20 -9.33301 36.167 -28 48.5s-56.334 25.833 -113.001 40.5c-40 10 -72.333 19.833 -97 29.5
s-48.167 22.5 -70.5 38.5s-38.666 35.833 -48.999 59.5s-15.5 52.5 -15.5 86.5v2c0 63.333 22.833 114.333 68.5 153s104.5 58 176.5 58c99.333 0 186 -29.667 260 -89l-80 -116c-66 46 -126.667 69 -182 69c-28.667 0 -50.834 -5.66699 -66.501 -17s-23.5 -26 -23.5 -44v-2
c0 -22.667 9.66699 -39.667 29 -51s60 -25 122 -41c76 -20 132 -45.5 168 -76.5s54 -75.5 54 -133.5v-2c0 -68 -23.5 -121.167 -70.5 -159.5s-109.167 -57.5 -186.5 -57.5zM245 754.999l-123 157h117l79 -66l79 66h115l-123 -157h-144z" />
    <glyph glyph-name="uni0006" horiz-adv-x="502" 
d="M256 -10c-84.667 0 -161.332 27.0029 -229.999 81.0029l65 100c58.667 -42.667 115 -64 169 -64c42.667 0 64 13.333 64 40v2c0 3.33301 -0.5 6.66602 -1.5 9.99902s-2.83301 6.33301 -5.5 9s-5.5 5.16699 -8.5 7.5s-7 4.66602 -12 6.99902l-13 6
c-3.66699 1.66699 -8.83398 3.66699 -15.501 6s-12.334 4.16602 -17.001 5.49902l-19 5.5l-19 5.5c-22.667 6.66699 -42 13.5 -58 20.5s-32.5 16.5 -49.5 28.5s-30 27.5 -39 46.5s-13.5 40.833 -13.5 65.5v2c0 52.667 18.667 94.167 56 124.5s84 45.5 140 45.5
c72 0 138.667 -20.667 200 -62l-58 -105c-56.667 33.333 -105 50 -145 50c-18 0 -31.833 -3.5 -41.5 -10.5s-14.5 -15.833 -14.5 -26.5v-2c0 -16.667 19 -32 57 -46c2.66699 -0.666992 20 -6.66699 52 -18c23.333 -8 42.833 -15.5 58.5 -22.5s32.334 -16.667 50.001 -29
s31 -27.5 40 -45.5s13.5 -38.667 13.5 -62v-2c0 -57.333 -18.833 -100.5 -56.5 -129.5s-87.167 -43.5 -148.5 -43.5zM183.002 595.003l-123 157h117l79 -66l79 66h115l-123 -157h-144z" />
    <glyph glyph-name="uni0007" horiz-adv-x="716" 
d="M281 0v276l-269 424h180l167 -281l170 281h175l-269 -421v-279h-154zM299 750l113 177l131 -57l-128 -120h-116z" />
    <glyph glyph-name="uni0008" horiz-adv-x="600" 
d="M196 -163c-48 0 -93 12.332 -135 36.999l51 110c23.333 -14 45 -21 65 -21c24 0 41.667 11.667 53 35l-210 538h161l122 -365l117 365h158l-206 -549c-20.667 -55.333 -44 -94.166 -70 -116.499s-61.333 -33.5 -106 -33.5zM229 594.999l113 177l131 -57l-128 -120h-116z
" />
    <glyph glyph-name="uni000B" horiz-adv-x="673" 
d="M84 0v700h154v-102h132c82.667 0 148 -22.167 196 -66.5s72 -102.833 72 -175.5v-2c0 -78 -26.667 -138.5 -80 -181.5s-121 -64.5 -203 -64.5h-117v-108h-154zM238 245h122c37.333 0 67 10 89 30s33 45.333 33 76v2c0 34 -11 60.167 -33 78.5s-52.667 27.5 -92 27.5h-119
v-214z" />
    <glyph glyph-name="uni000C" horiz-adv-x="675" 
d="M68 -160v890h152v-271c42.667 58 98.334 87 167.001 87c66.667 0 124 -24.833 172 -74.5s72 -117.167 72 -202.5v-2c0 -85.333 -23.833 -152.833 -71.5 -202.5s-105.167 -74.5 -172.5 -74.5c-66.667 0 -122.334 26.667 -167.001 80v-230h-152zM348 119
c36.667 0 67.667 13.667 93 41s38 63 38 107v2c0 43.333 -12.667 78.833 -38 106.5s-56.333 41.5 -93 41.5s-67.5 -13.833 -92.5 -41.5s-37.5 -63.167 -37.5 -106.5v-2c0 -43.333 12.5 -78.833 37.5 -106.5s55.833 -41.5 92.5 -41.5z" />
    <glyph glyph-name="uni000E" horiz-adv-x="708" 
d="M63 0v117l385 448h-373v135h571v-117l-385 -448h385v-135h-583zM285 755l-123 157h117l79 -66l79 66h115l-123 -157h-144z" />
    <glyph glyph-name="uni000F" horiz-adv-x="563" 
d="M50 0v107l277 306h-268v123h457v-107l-278 -306h278v-123h-466zM217 595l-123 157h117l79 -66l79 66h115l-123 -157h-144z" />
    <glyph glyph-name="space" unicode=" " horiz-adv-x="300" 
 />
    <glyph glyph-name="exclam" unicode="!" horiz-adv-x="324" 
d="M120 238l-47 442v20h178v-20l-47 -442h-84zM81 0v160h162v-160h-162z" />
    <glyph glyph-name="quotedbl" unicode="&#x22;" horiz-adv-x="520" 
d="M293 381l18 319h168v-5l-109 -314h-77zM57 381l18 319h168v-5l-109 -314h-77z" />
    <glyph glyph-name="numbersign" unicode="#" horiz-adv-x="700" 
d="M85 0l26 150h-76v128h98l25 148h-88v128h110l25 146h132l-25 -146h145l25 146h132l-25 -146h76v-128h-98l-25 -148h88v-128h-110l-26 -150h-132l26 150h-145l-26 -150h-132zM265 278h145l25 148h-145z" />
    <glyph glyph-name="dollar" unicode="$" horiz-adv-x="646" 
d="M280 -98l0.00195312 100.998c-88.667 11.333 -167.334 43 -236.001 95l78 114c57.333 -43.333 111.666 -70.333 162.999 -81v159c-74.667 20 -129.167 46 -163.5 78s-51.5 76.667 -51.5 134v2c0 54.667 19 99.334 57 134.001s89 55.334 153 62.001v58h104v-60
c67.333 -9.33301 129.333 -34 186 -74l-67 -117c-42.667 28.667 -84 48.334 -124 59.001v-151c76.667 -20.667 132 -47.667 166 -81s51 -78 51 -134v-2c0 -54.667 -19.167 -99.334 -57.5 -134.001s-89.833 -55.667 -154.5 -63v-99h-104zM285.002 439.998l-0.000976562 135
c-46 -6 -69 -26.667 -69 -62v-2c0 -16 4.83301 -29.5 14.5 -40.5s27.834 -21.167 54.501 -30.5zM379.001 125.998c47.333 7.33301 71 28.667 71 64v2c0 17.333 -5.16699 31.5 -15.5 42.5s-28.833 21.5 -55.5 31.5v-140z" />
    <glyph glyph-name="percent" unicode="%" horiz-adv-x="860" 
d="M214 350c-49.333 0 -89.833 17 -121.5 51s-47.5 76 -47.5 126v2c0 50.667 16 93.167 48 127.5s73 51.5 123 51.5c49.333 0 89.833 -17 121.5 -51s47.5 -76 47.5 -126v-2c0 -50 -16 -92.333 -48 -127s-73 -52 -123 -52zM115 0l511 700h119l-511 -700h-119zM644 -8
c-49.333 0 -89.833 17 -121.5 51s-47.5 76 -47.5 126v2c0 50.667 16 93.167 48 127.5s73 51.5 123 51.5c49.333 0 89.833 -17 121.5 -51s47.5 -76 47.5 -126v-2c0 -50 -16 -92.333 -48 -127s-73 -52 -123 -52zM216 441c20 0 35.667 8.33301 47 25s17 37 17 61v2
c0 24 -6.16699 44.667 -18.5 62s-28.166 26 -47.499 26c-20 0 -35.667 -8.33301 -47 -25s-17 -37 -17 -61v-2c0 -24 6.16699 -44.667 18.5 -62s28.166 -26 47.499 -26zM646 83c20 0 35.667 8.33301 47 25s17 37 17 61v2c0 24 -6.16699 44.667 -18.5 62
s-28.166 26 -47.499 26c-20 0 -35.667 -8.33301 -47 -25s-17 -37 -17 -61v-2c0 -24 6.16699 -44.667 18.5 -62s28.166 -26 47.499 -26z" />
    <glyph glyph-name="ampersand" unicode="&#x26;" horiz-adv-x="696" 
d="M555 -14l-81 82c-63.333 -52 -131.666 -78 -204.999 -78c-68 0 -124.167 18.5 -168.5 55.5s-66.5 85.833 -66.5 146.5v2c0 86.667 45.333 150.667 136 192c-32.667 46 -49 92.667 -49 140v2c0 50.667 19.167 94 57.5 130s89.833 54 154.5 54
c58.667 0 106.167 -16.833 142.5 -50.5s54.5 -75.5 54.5 -125.5v-2c0 -84 -49 -145 -147 -183l93 -93c22 34.667 44.667 74.667 68 120l113 -62c-34.667 -62.667 -65.334 -112 -92.001 -148l103 -103zM303 432c32 12 55.5 25.168 70.5 39.501s22.5 32.166 22.5 53.499v2
c0 20 -6 35.833 -18 47.5s-28 17.5 -48 17.5c-20.667 0 -37.167 -6.5 -49.5 -19.5s-18.5 -30.167 -18.5 -51.5v-2c0 -26.667 13.667 -55.667 41 -87zM287 116.001c33.333 0 67 13.334 101 40.001l-134 136c-43.333 -22.667 -65 -53.334 -65 -92.001v-2
c0 -24.667 9.16699 -44.5 27.5 -59.5s41.833 -22.5 70.5 -22.5z" />
    <glyph glyph-name="quotesingle" unicode="'" horiz-adv-x="286" 
d="M57 381l18 319h170v-5l-109 -314h-79z" />
    <glyph glyph-name="parenleft" unicode="(" horiz-adv-x="445" 
d="M336 -141c-92.667 50.667 -162 110.83 -208 180.497s-69 152.167 -69 247.5s23 177.833 69 247.5s115.333 129.834 208 180.501l67 -101c-68 -47.333 -117.167 -96.166 -147.5 -146.499s-45.5 -110.5 -45.5 -180.5s15.167 -130.167 45.5 -180.5
s79.5 -99.166 147.5 -146.499z" />
    <glyph glyph-name="parenright" unicode=")" horiz-adv-x="445" 
d="M109 -141l-67 101.004c68 47.333 117.167 96.166 147.5 146.499s45.5 110.5 45.5 180.5s-15.167 130.167 -45.5 180.5s-79.5 99.166 -147.5 146.499l67 101c92.667 -50.667 162 -110.834 208 -180.501s69 -152.167 69 -247.5s-23 -177.833 -69 -247.5
s-115.333 -129.834 -208 -180.501z" />
    <glyph glyph-name="asterisk" unicode="*" horiz-adv-x="430" 
d="M174 372l16 120l-97 -74l-42 72l112 47l-112 47l42 72l97 -74l-16 120h82l-16 -120l97 74l42 -72l-112 -47l112 -47l-42 -72l-97 74l16 -120h-82z" />
    <glyph glyph-name="plus" unicode="+" horiz-adv-x="640" 
d="M249 103v180h-181v138h181v180h142v-180h181v-138h-181v-180h-142z" />
    <glyph glyph-name="comma" unicode="," horiz-adv-x="286" 
d="M39 -162l-13.001 63c70.667 7.33301 103.334 40.333 98.001 99h-62v160h162v-135c0 -64 -15.5 -110.833 -46.5 -140.5s-77.167 -45.167 -138.5 -46.5z" />
    <glyph glyph-name="hyphen" unicode="-" horiz-adv-x="408" 
d="M50 237v146h308v-146h-308z" />
    <glyph glyph-name="period" unicode="." horiz-adv-x="286" 
d="M62 0v160h162v-160h-162z" />
    <glyph glyph-name="slash" unicode="/" horiz-adv-x="530" 
d="M-28 -128l443 926h129l-443 -926h-129z" />
    <glyph glyph-name="zero" unicode="0" horiz-adv-x="730" 
d="M364 -12c-92 0 -166.667 34.1689 -224 102.502s-86 154.166 -86 257.499v2c0 103.333 29 189.5 87 258.5s133 103.5 225 103.5c91.333 0 165.833 -34.333 223.5 -103s86.5 -154.334 86.5 -257.001v-2c0 -103.333 -29 -189.5 -87 -258.5s-133 -103.5 -225 -103.5z
M366 127.002c46 0 82.833 20.667 110.5 62s41.5 94.333 41.5 159v2c0 64 -14.333 117.167 -43 159.5s-65.667 63.5 -111 63.5s-82 -20.667 -110 -62s-42 -94.333 -42 -159v-2c0 -64.667 14.167 -118 42.5 -160s65.5 -63 111.5 -63z" />
    <glyph glyph-name="one" unicode="1" horiz-adv-x="422" 
d="M178 0v549l-122 -30l-32 126l201 60h105v-705h-152z" />
    <glyph glyph-name="two" unicode="2" horiz-adv-x="623" 
d="M49 0v121.999l233 191c46 38 77.667 68.5 95 91.5s26 48.5 26 76.5c0 28.667 -8.66699 51 -26 67s-40 24 -68 24c-26 0 -49.5 -7.16699 -70.5 -21.5s-45.167 -38.5 -72.5 -72.5l-108 87c36.667 50 74.5 86.667 113.5 110s88.167 35 147.5 35
c72.667 0 131 -19.667 175 -59s66 -91.666 66 -156.999v-2c0 -38 -7.33301 -72.167 -22 -102.5s-33.667 -57 -57 -80s-58.333 -52.5 -105 -88.5l-114 -88h305v-133h-518z" />
    <glyph glyph-name="three" unicode="3" horiz-adv-x="621" 
d="M311 -12c-114 0 -204.998 40.332 -272.998 120.999l106 101c50 -56 106.333 -84 169 -84c29.333 0 53.166 7.66699 71.499 23s27.5 36 27.5 62v2c0 28.667 -12 50.667 -36 66s-57.667 23 -101 23h-64l-24 98l167 168h-275v132h473v-116l-177 -169
c125.333 -21.333 188 -86.666 188 -195.999v-2c0 -67.333 -22.833 -122.333 -68.5 -165s-106.834 -64 -183.501 -64z" />
    <glyph glyph-name="four" unicode="4" horiz-adv-x="689" 
d="M398 0v151h-342l-25 109l384 445h130v-429h94v-125h-94v-151h-147zM212 276h186v218z" />
    <glyph glyph-name="five" unicode="5" horiz-adv-x="630" 
d="M305 -12c-101.333 0 -188.668 35 -262.001 105l93 111c56 -50.667 111.667 -76 167 -76c36.667 0 65.334 8.5 86.001 25.5s31 40.833 31 71.5v2c0 29.333 -11.333 52.5 -34 69.5s-52.667 25.5 -90 25.5s-76.333 -8.66699 -117 -26l-89 59l20 345h430v-135h-298l-8 -121
c32 8 62.667 12 92 12c72.667 0 131.667 -18.5 177 -55.5s68 -93.167 68 -168.5v-2c0 -74 -24.167 -132.833 -72.5 -176.5s-112.833 -65.5 -193.5 -65.5z" />
    <glyph glyph-name="six" unicode="6" horiz-adv-x="662" 
d="M339 -12c-84.667 0 -151.998 25.002 -201.998 75.002c-55.333 55.333 -83 143.666 -83 264.999v2c0 113.333 26 205.333 78 276s128.333 106 229 106c81.333 0 154.333 -25.667 219 -77l-81 -119c-25.333 19.333 -48.5 33.5 -69.5 42.5s-45.5 13.5 -73.5 13.5
c-41.333 0 -73.833 -14.833 -97.5 -44.5s-38.167 -68.834 -43.5 -117.501c45.333 30 93.666 45 144.999 45c72 0 131 -19.5 177 -58.5s69 -93.833 69 -164.5v-2c0 -70.667 -25.333 -128.667 -76 -174s-114.334 -68 -191.001 -68zM333.002 120.002
c37.333 0 66.666 9.5 87.999 28.5s32 43.833 32 74.5v2c0 30 -11 54.5 -33 73.5s-51.667 28.5 -89 28.5s-66.666 -9.33301 -87.999 -28s-32 -43 -32 -73v-2c0 -30 11 -54.833 33 -74.5s51.667 -29.5 89 -29.5z" />
    <glyph glyph-name="seven" unicode="7" horiz-adv-x="619" 
d="M84 0l313 567h-329v133h504v-116l-314 -584h-174z" />
    <glyph glyph-name="eight" unicode="8" horiz-adv-x="630" 
d="M315 -10c-78.667 0 -143.336 18.666 -194.003 55.999s-76 86 -76 146v2c0 78 37.667 134.333 113 169c-59.333 36 -89 87 -89 153v2c0 54.667 22.833 100.334 68.5 137.001s104.834 55 177.501 55s131.834 -18.333 177.501 -55s68.5 -82.334 68.5 -137.001v-2
c0 -66 -29.667 -117 -89 -153c38 -20 66.333 -42.667 85 -68s28 -57.666 28 -96.999v-2c0 -63.333 -25.167 -113.5 -75.5 -150.5s-115.166 -55.5 -194.499 -55.5zM314.998 413.999c30 0 54.167 8.00098 72.5 24.001s27.5 36.333 27.5 61v2c0 22.667 -9.16699 42 -27.5 58
s-42.5 24 -72.5 24c-30.667 0 -55 -7.83301 -73 -23.5s-27 -34.834 -27 -57.501v-2c0 -24.667 9.16699 -45.167 27.5 -61.5s42.5 -24.5 72.5 -24.5zM314.998 117c37.333 0 66.833 8.16895 88.5 24.502s32.5 37.166 32.5 62.499v2c0 26.667 -11.167 47.667 -33.5 63
s-51.5 23 -87.5 23s-65.167 -7.66699 -87.5 -23s-33.5 -36.333 -33.5 -63v-2c0 -24.667 11 -45.334 33 -62.001s51.333 -25 88 -25z" />
    <glyph glyph-name="nine" unicode="9" horiz-adv-x="662" 
d="M302 -12c-86.667 0 -163.336 27.666 -230.003 82.999l81 117c50 -40 101 -60 153 -60c41.333 0 74 14.333 98 43s38.667 67.334 44 116.001c-37.333 -32 -84.666 -48 -141.999 -48c-76.667 0 -137.5 20 -182.5 60s-67.5 95.333 -67.5 166v2
c0 70.667 24.833 129.167 74.5 175.5s113.834 69.5 192.501 69.5c46 0 84.5 -6 115.5 -18s59.833 -31.333 86.5 -58c55.333 -55.333 83 -143.333 83 -264v-2c0 -116 -26.667 -208.667 -80 -278s-128.666 -104 -225.999 -104zM330.998 366.999
c37.333 0 66.667 9.66602 88 28.999s32 44.333 32 75v2c0 31.333 -11 57 -33 77s-52 30 -90 30c-37.333 0 -66.5 -9.66699 -87.5 -29s-31.5 -45 -31.5 -77v-2c0 -31.333 11 -56.666 33 -75.999s51.667 -29 89 -29z" />
    <glyph glyph-name="colon" unicode=":" horiz-adv-x="296" 
d="M67 376v160h162v-160h-162zM67 0v160h162v-160h-162z" />
    <glyph glyph-name="semicolon" unicode=";" horiz-adv-x="296" 
d="M67 376v160h162v-160h-162zM44 -162l-13.001 63c70.667 7.33301 103.334 40.333 98.001 99h-62v160h162v-135c0 -64 -15.5 -110.833 -46.5 -140.5s-77.167 -45.167 -138.5 -46.5z" />
    <glyph glyph-name="less" unicode="&#x3c;" horiz-adv-x="640" 
d="M552 71l-484 212v138l484 212v-141l-338 -139l338 -139v-143z" />
    <glyph glyph-name="equal" unicode="=" horiz-adv-x="640" 
d="M83 413v138h474v-138h-474zM83 153v138h474v-138h-474z" />
    <glyph glyph-name="greater" unicode="&#x3e;" horiz-adv-x="640" 
d="M88 71v141l338 139l-338 139v143l484 -212v-138z" />
    <glyph glyph-name="question" unicode="?" horiz-adv-x="544" 
d="M197 238l-23 161.999l5 5c116.667 4.66699 175 35 175 91v2c0 22.667 -8 40.167 -24 52.5s-38.667 18.5 -68 18.5c-54 0 -104 -23 -150 -69l-92 101c65.333 72 147 108 245 108c73.333 0 132 -18.167 176 -54.5s66 -87.166 66 -152.499v-2
c0 -107.333 -65.667 -174.333 -197 -201l-11 -61h-102zM164 -0.000976562v160h162v-160h-162z" />
    <glyph glyph-name="at" unicode="@" horiz-adv-x="980" 
d="M499 -162c-126.667 0 -232.667 42.501 -318 127.501s-128 187.833 -128 308.5c0 120 42.5 223 127.5 309s188.5 129 310.5 129c120 0 222.667 -39.833 308 -119.5s128 -171.834 128 -276.501c0 -80 -18.667 -141.833 -56 -185.5s-85 -65.5 -143 -65.5
c-67.333 0 -118.333 20 -153 60c-44 -40 -93.333 -60 -148 -60c-52 0 -95.5 17.667 -130.5 53s-52.5 82 -52.5 140c0 69.333 22.5 128.5 67.5 177.5s97.167 73.5 156.5 73.5c58.667 0 104.667 -22.667 138 -68l11 53l118 -19l-47 -269c-2 -10 -3 -20.333 -3 -31
c0 -18.667 6.5 -33.834 19.5 -45.501s30.833 -17.5 53.5 -17.5c36.667 0 67 18 91 54s36 86 36 150c0 94.667 -38.167 177.667 -114.5 249s-169.5 107 -279.5 107c-112 0 -206 -38.667 -282 -116s-114 -171.333 -114 -282c0 -111.333 38.167 -205.166 114.5 -281.499
s172.833 -114.5 289.5 -114.5c87.333 0 169 22.333 245 67l20 -32c-82 -50 -170.333 -75 -265 -75zM462 168.001c32 0 59.833 13.8311 83.5 41.498s35.5 61.834 35.5 102.501c0 28 -8.66699 50.667 -26 68s-39.666 26 -66.999 26c-32.667 0 -60.834 -13.667 -84.501 -41
s-35.5 -60.666 -35.5 -99.999c0 -30.667 8.66699 -54.5 26 -71.5s40 -25.5 68 -25.5z" />
    <glyph glyph-name="A" unicode="A" horiz-adv-x="790" 
d="M24 0l300 705h142l300 -705h-161l-64 157h-296l-64 -157h-157zM300 293h186l-93 227z" />
    <glyph glyph-name="B" unicode="B" horiz-adv-x="722" 
d="M84 0v700.003h325c80.667 0 141.667 -20.667 183 -62c32 -32 48 -71.667 48 -119v-2c0 -66 -30.667 -116.333 -92 -151c43.333 -16.667 76 -38.334 98 -65.001s33 -62.334 33 -107.001v-2c0 -62.667 -23.333 -110.334 -70 -143.001s-110.667 -49 -192 -49h-333z
M234 417.003l142 0.000976562c74 0 111 24.667 111 74v2c0 23.333 -8.66699 41.166 -26 53.499s-42.333 18.5 -75 18.5h-152v-148zM234 135.004h183c72.667 0 109 25.333 109 76v2c0 50.667 -38 76 -114 76h-178v-154z" />
    <glyph glyph-name="C" unicode="C" horiz-adv-x="738" 
d="M412 -12c-102.667 0 -188.165 34.667 -256.498 104s-102.5 154.666 -102.5 255.999v2c0 101.333 34.333 187 103 257s156 105 262 105c62 0 114.667 -9.16699 158 -27.5s82.666 -45.166 117.999 -80.499l-98 -113c-58 52.667 -117.667 79 -179 79
c-58 0 -106.333 -21.167 -145 -63.5s-58 -93.833 -58 -154.5v-2c0 -61.333 19.167 -113.333 57.5 -156s86.833 -64 145.5 -64c37.333 0 69.666 6.66699 96.999 20s56.333 34 87 62l98 -99c-38.667 -41.333 -80.167 -72.5 -124.5 -93.5s-98.5 -31.5 -162.5 -31.5z" />
    <glyph glyph-name="D" unicode="D" horiz-adv-x="782" 
d="M84 0v699.999h273c108.667 0 197.834 -33.167 267.501 -99.5s104.5 -149.166 104.5 -248.499v-2c0 -100 -34.833 -183.333 -104.5 -250s-158.834 -100 -267.501 -100h-273zM238 138.999h119c62.667 0 113.5 19.333 152.5 58s58.5 89 58.5 151v2
c0 62 -19.5 112.667 -58.5 152s-89.833 59 -152.5 59h-119v-422z" />
    <glyph glyph-name="E" unicode="E" horiz-adv-x="670" 
d="M84 0v700h528v-137h-375v-142h330v-137h-330v-147h380v-137h-533z" />
    <glyph glyph-name="F" unicode="F" horiz-adv-x="656" 
d="M84 0v700h533v-140h-379v-149h334v-140h-334v-271h-154z" />
    <glyph glyph-name="G" unicode="G" horiz-adv-x="784" 
d="M421 -12c-108 0 -196.333 34.001 -265 102.001s-103 154 -103 258v2c0 100.667 35 186.167 105 256.5s157.333 105.5 262 105.5c60.667 0 112 -7.83301 154 -23.5s82.333 -39.834 121 -72.501l-97 -117c-29.333 24.667 -57.666 42.667 -84.999 54s-60 17 -98 17
c-56 0 -103.5 -21.333 -142.5 -64s-58.5 -94 -58.5 -154v-2c0 -64 19.833 -117 59.5 -159s90.5 -63 152.5 -63c57.333 0 105.666 14 144.999 42v100h-155v133h304v-304c-87.333 -74 -187 -111 -299 -111z" />
    <glyph glyph-name="H" unicode="H" horiz-adv-x="760" 
d="M84 0v700h154v-277h284v277h154v-700h-154v281h-284v-281h-154z" />
    <glyph glyph-name="I" unicode="I" horiz-adv-x="336" 
d="M91 0v700h154v-700h-154z" />
    <glyph glyph-name="J" unicode="J" horiz-adv-x="564" 
d="M243 -10c-94 0 -170.334 35 -229.001 105l97 108c42.667 -46.667 85.334 -70 128.001 -70c62.667 0 94 38.667 94 116v451h158v-458c0 -80.667 -22 -143 -66 -187c-43.333 -43.333 -104 -65 -182 -65z" />
    <glyph glyph-name="K" unicode="K" horiz-adv-x="730" 
d="M84 0v700h154v-306l284 306h186l-285 -297l298 -403h-185l-217 298l-81 -84v-214h-154z" />
    <glyph glyph-name="L" unicode="L" horiz-adv-x="619" 
d="M84 0v700h154v-560h349v-140h-503z" />
    <glyph glyph-name="M" unicode="M" horiz-adv-x="868" 
d="M84 0v700h166l184 -296l184 296h166v-700h-153v457l-197 -299h-4l-195 296v-454h-151z" />
    <glyph glyph-name="N" unicode="N" horiz-adv-x="790" 
d="M84 0v700h142l328 -431v431h152v-700h-131l-339 445v-445h-152z" />
    <glyph glyph-name="O" unicode="O" horiz-adv-x="850" 
d="M424 -12c-106.667 0 -195.167 34.833 -265.5 104.5s-105.5 154.834 -105.5 255.501v2c0 100.667 35.5 186.167 106.5 256.5s159.833 105.5 266.5 105.5s195.167 -34.833 265.5 -104.5s105.5 -154.834 105.5 -255.501v-2c0 -100.667 -35.5 -186.167 -106.5 -256.5
s-159.833 -105.5 -266.5 -105.5zM426 130c61.333 0 111.666 21 150.999 63s59 93.667 59 155v2c0 61.333 -20 113.333 -60 156s-90.667 64 -152 64s-111.666 -21 -150.999 -63s-59 -93.667 -59 -155v-2c0 -61.333 20 -113.333 60 -156s90.667 -64 152 -64z" />
    <glyph glyph-name="P" unicode="P" horiz-adv-x="668" 
d="M84 0v700h286c82.667 0 148 -22.167 196 -66.5s72 -102.833 72 -175.5v-2c0 -78 -26.667 -138.5 -80 -181.5s-121 -64.5 -203 -64.5h-117v-210h-154zM238 347h122c37.333 0 67 10 89 30s33 45.333 33 76v2c0 34 -11 60.167 -33 78.5s-52.667 27.5 -92 27.5h-119v-214z
" />
    <glyph glyph-name="Q" unicode="Q" horiz-adv-x="850" 
d="M709 -21l-77 69c-62 -40 -131.333 -60 -208 -60c-106.667 0 -195.167 34.833 -265.5 104.5s-105.5 154.834 -105.5 255.501v2c0 100.667 35.5 186.167 106.5 256.5s159.833 105.5 266.5 105.5s195.167 -34.833 265.5 -104.5s105.5 -154.834 105.5 -255.501v-2
c0 -74 -20.667 -141 -62 -201l72 -61zM426 130c32.667 0 63.332 6.33301 91.999 19l-114 97l98 110l115 -104c12.667 28 19 60 19 96v2c0 61.333 -20 113.333 -60 156s-90.667 64 -152 64s-111.666 -21 -150.999 -63s-59 -93.667 -59 -155v-2c0 -61.333 20 -113.333 60 -156
s90.667 -64 152 -64z" />
    <glyph glyph-name="R" unicode="R" horiz-adv-x="723" 
d="M84 0v699.999h320c88.667 0 156.667 -23.667 204 -71c40 -40 60 -93.333 60 -160v-2c0 -107.333 -50 -179.666 -150 -216.999l171 -250h-180l-150 224h-2h-119v-224h-154zM238 359.999h156c36.667 0 65.5 9 86.5 27s31.5 42 31.5 72v2c0 32.667 -10.667 57.5 -32 74.5
s-51 25.5 -89 25.5h-153v-201z" />
    <glyph glyph-name="S" unicode="S" horiz-adv-x="640" 
d="M333 -10c-114.667 0 -213.667 37.332 -297 111.999l91 109c68.667 -56.667 138.334 -85 209.001 -85c31.333 0 56 5.83301 74 17.5s27 27.834 27 48.501v2c0 20 -9.33301 36.167 -28 48.5s-56.334 25.833 -113.001 40.5c-40 10 -72.333 19.833 -97 29.5
s-48.167 22.5 -70.5 38.5s-38.666 35.833 -48.999 59.5s-15.5 52.5 -15.5 86.5v2c0 63.333 22.833 114.333 68.5 153s104.5 58 176.5 58c99.333 0 186 -29.667 260 -89l-80 -116c-66 46 -126.667 69 -182 69c-28.667 0 -50.834 -5.66699 -66.501 -17s-23.5 -26 -23.5 -44v-2
c0 -22.667 9.66699 -39.667 29 -51s60 -25 122 -41c76 -20 132 -45.5 168 -76.5s54 -75.5 54 -133.5v-2c0 -68 -23.5 -121.167 -70.5 -159.5s-109.167 -57.5 -186.5 -57.5z" />
    <glyph glyph-name="T" unicode="T" horiz-adv-x="648" 
d="M247 0v558h-213v142h580v-142h-213v-558h-154z" />
    <glyph glyph-name="U" unicode="U" horiz-adv-x="756" 
d="M376 -11c-95.333 0 -169.667 26.499 -223 79.499s-80 130.167 -80 231.5v400h154v-396c0 -56 13.167 -98.833 39.5 -128.5s63.5 -44.5 111.5 -44.5s85.167 14.333 111.5 43s39.5 70.334 39.5 125.001v401h154v-395c0 -104 -27.167 -182.667 -81.5 -236
s-129.5 -80 -225.5 -80z" />
    <glyph glyph-name="V" unicode="V" horiz-adv-x="750" 
d="M307 -5l-283 705h170l183 -493l183 493h166l-283 -705h-136z" />
    <glyph glyph-name="W" unicode="W" horiz-adv-x="1122" 
d="M269 -5l-239 705h165l145 -474l157 476h132l157 -476l145 474h161l-239 -705h-134l-158 458l-158 -458h-134z" />
    <glyph glyph-name="X" unicode="X" horiz-adv-x="732" 
d="M31 0l244 356l-234 344h180l147 -227l148 227h175l-234 -342l244 -358h-180l-157 240l-158 -240h-175z" />
    <glyph glyph-name="Y" unicode="Y" horiz-adv-x="716" 
d="M281 0v276l-269 424h180l167 -281l170 281h175l-269 -421v-279h-154z" />
    <glyph glyph-name="Z" unicode="Z" horiz-adv-x="708" 
d="M63 0v117l385 448h-373v135h571v-117l-385 -448h385v-135h-583z" />
    <glyph glyph-name="bracketleft" unicode="[" horiz-adv-x="465" 
d="M83 -130v830h323v-119h-177v-592h177v-119h-323z" />
    <glyph glyph-name="backslash" unicode="\" horiz-adv-x="530" 
d="M429 -128l-443 926h129l443 -926h-129z" />
    <glyph glyph-name="bracketright" unicode="]" horiz-adv-x="465" 
d="M59 -130v119h177v592h-177v119h323v-830h-323z" />
    <glyph glyph-name="asciicircum" unicode="^" 
d="M50 493l148 207h104l148 -207h-110l-91 117l-91 -117h-108z" />
    <glyph glyph-name="underscore" unicode="_" horiz-adv-x="600" 
d="M-2 -160v116h604v-116h-604z" />
    <glyph glyph-name="grave" unicode="`" 
d="M238 595l-128 120l131 57l113 -177h-116z" />
    <glyph glyph-name="a" unicode="a" horiz-adv-x="592" 
d="M220 -10c-52.667 0 -96.5 14.499 -131.5 43.499s-52.5 69.167 -52.5 120.5v2c0 56.667 19.5 99.334 58.5 128.001s91.5 43 157.5 43c44.667 0 88.334 -7.33301 131.001 -22v9c0 65.333 -38.333 98 -115 98c-46 0 -95.333 -9.66699 -148 -29l-38 116
c65.333 28.667 134.666 43 207.999 43c80.667 0 141 -20 181 -60c38.667 -38.667 58 -95.667 58 -171v-311h-147v58c-40.667 -45.333 -94.667 -68 -162 -68zM266 94.999c35.333 0 64.001 8.83301 86.001 26.5s33 40.167 33 67.5v27c-28.667 13.333 -61 20 -97 20
c-32.667 0 -58.334 -6.33301 -77.001 -19s-28 -31 -28 -55v-2c0 -20 7.66699 -35.833 23 -47.5s35.333 -17.5 60 -17.5z" />
    <glyph glyph-name="b" unicode="b" horiz-adv-x="675" 
d="M387 -10c-66.667 0 -122.334 26.667 -167.001 80v-70h-152v730h152v-271c42.667 58 98.334 87 167.001 87c66.667 0 124 -24.833 172 -74.5s72 -117.167 72 -202.5v-2c0 -85.333 -23.833 -152.833 -71.5 -202.5s-105.167 -74.5 -172.5 -74.5zM348 119
c36.667 0 67.667 13.667 93 41s38 63 38 107v2c0 43.333 -12.667 78.833 -38 106.5s-56.333 41.5 -93 41.5s-67.5 -13.833 -92.5 -41.5s-37.5 -63.167 -37.5 -106.5v-2c0 -43.333 12.5 -78.833 37.5 -106.5s55.833 -41.5 92.5 -41.5z" />
    <glyph glyph-name="c" unicode="c" horiz-adv-x="571" 
d="M321 -12c-80 0 -146.5 26.834 -199.5 80.501s-79.5 119.167 -79.5 196.5v2c0 77.333 26.667 143.166 80 197.499s120.333 81.5 201 81.5c89.333 0 160.666 -30 213.999 -90l-93 -100c-37.333 39.333 -78 59 -122 59c-37.333 0 -68.333 -14.333 -93 -43s-37 -63 -37 -103
v-2c0 -42 12.5 -77.167 37.5 -105.5s57.833 -42.5 98.5 -42.5c42 0 83 19 123 57l89 -90c-29.333 -32 -60.666 -56.333 -93.999 -73s-75 -25 -125 -25z" />
    <glyph glyph-name="d" unicode="d" horiz-adv-x="675" 
d="M288 -10c-66.667 0 -124 24.833 -172 74.5s-72 117.167 -72 202.5v2c0 85.333 23.833 152.833 71.5 202.5s105.167 74.5 172.5 74.5c66.667 0 122.334 -26.667 167.001 -80v264h152v-730h-152v77c-42.667 -58 -98.334 -87 -167.001 -87zM327 119
c36.667 0 67.5 13.833 92.5 41.5s37.5 63.167 37.5 106.5v2c0 43.333 -12.5 78.833 -37.5 106.5s-55.833 41.5 -92.5 41.5s-67.667 -13.667 -93 -41s-38 -63 -38 -107v-2c0 -43.333 12.667 -78.833 38 -106.5s56.333 -41.5 93 -41.5z" />
    <glyph glyph-name="e" unicode="e" horiz-adv-x="613" 
d="M322 -12c-81.333 0 -148.334 25.833 -201.001 77.5s-79 118.167 -79 199.5v2c0 78 25 144 75 198s113.333 81 190 81c84.667 0 149.334 -28 194.001 -84s67 -125 67 -207c0 -8 -0.666992 -21.333 -2 -40h-373c7.33301 -34 22.333 -60 45 -78s51.334 -27 86.001 -27
c47.333 0 90.666 18.333 129.999 55l87 -77c-54 -66.667 -127 -100 -219 -100zM190.999 310l229.001 -0.00195312c-4.66699 34.667 -16.834 62.334 -36.501 83.001s-45.167 31 -76.5 31c-30.667 0 -56.167 -10.167 -76.5 -30.5s-33.5 -48.166 -39.5 -83.499z" />
    <glyph glyph-name="f" unicode="f" horiz-adv-x="382" 
d="M94 0v406h-63v125h63v34c0 58 14.333 101.333 43 130c28 28 69 42 123 42c40.667 0 76.667 -5 108 -15v-126c-24 8.66699 -47 13 -69 13c-36.667 0 -55 -19.333 -55 -58v-21h123v-124h-121v-406h-152z" />
    <glyph glyph-name="g" unicode="g" horiz-adv-x="675" 
d="M308 -162c-87.333 0 -166.334 18.665 -237.001 55.998l52 114c58 -32.667 118.333 -49 181 -49c102 0 153 48.667 153 146v26c-24 -29.333 -49.5 -51.166 -76.5 -65.499s-59.833 -21.5 -98.5 -21.5c-66 0 -122.167 22.5 -168.5 67.5s-69.5 105.833 -69.5 182.5v2
c0 76.667 23.333 137.5 70 182.5s102.667 67.5 168 67.5c66.667 0 124.334 -26.667 173.001 -80v70h152v-415c0 -95.333 -22.667 -165.666 -68 -210.999c-48 -48 -125 -72 -231 -72zM325.999 169.998c37.333 0 68.5 11.667 93.5 35s37.5 53 37.5 89v2
c0 36 -12.5 65.667 -37.5 89s-56.167 35 -93.5 35s-68.333 -11.667 -93 -35s-37 -53 -37 -89v-2c0 -36.667 12.333 -66.5 37 -89.5s55.667 -34.5 93 -34.5z" />
    <glyph glyph-name="h" unicode="h" horiz-adv-x="623" 
d="M68 0v730h152v-270c44.667 57.333 97 86 157 86c57.333 0 102 -17.667 134 -53s48 -84 48 -146v-347h-152v299c0 35.333 -8 62.333 -24 81s-38.667 28 -68 28s-52.5 -9.33301 -69.5 -28s-25.5 -45.667 -25.5 -81v-299h-152z" />
    <glyph glyph-name="i" unicode="i" horiz-adv-x="302" 
d="M71 595v135h160v-135h-160zM75 0v536h152v-536h-152z" />
    <glyph glyph-name="j" unicode="j" horiz-adv-x="302" 
d="M71 595v135h160v-135h-160zM55 -163c-23.333 0 -45.333 2 -66 6v119c12 -2 22.667 -3 32 -3c36 0 54 20.667 54 62v515h152v-527c0 -114.667 -57.333 -172 -172 -172z" />
    <glyph glyph-name="k" unicode="k" horiz-adv-x="592" 
d="M68 0v730h152v-389l178 195h182l-204 -211l211 -325h-174l-140 219l-53 -56v-163h-152z" />
    <glyph glyph-name="l" unicode="l" horiz-adv-x="302" 
d="M75 0v730h152v-730h-152z" />
    <glyph glyph-name="m" unicode="m" horiz-adv-x="950" 
d="M68 0l-0.000976562 536h152v-76c44.667 57.333 97.334 86 158.001 86c71.333 0 121.666 -28.333 150.999 -85c48.667 56.667 107.334 85 176.001 85c57.333 0 101.833 -16.833 133.5 -50.5s47.5 -82.5 47.5 -146.5v-349h-152v299c0 72.667 -29.667 109 -89 109
c-28.667 0 -51.167 -9.33301 -67.5 -28s-24.5 -45.667 -24.5 -81v-299h-152v299c0 72.667 -29.667 109 -89 109c-28.667 0 -51.167 -9.33301 -67.5 -28s-24.5 -45.667 -24.5 -81v-299h-152z" />
    <glyph glyph-name="n" unicode="n" horiz-adv-x="623" 
d="M68 0v536h152v-76c44.667 57.333 97 86 157 86c57.333 0 102 -17.667 134 -53s48 -84 48 -146v-347h-152v299c0 35.333 -8 62.333 -24 81s-38.667 28 -68 28s-52.5 -9.33301 -69.5 -28s-25.5 -45.667 -25.5 -81v-299h-152z" />
    <glyph glyph-name="o" unicode="o" horiz-adv-x="664" 
d="M331 -12c-82.667 0 -151.5 26.833 -206.5 80.5s-82.5 119.167 -82.5 196.5v2c0 78 27.833 144 83.5 198s124.834 81 207.501 81s151.5 -26.833 206.5 -80.5s82.5 -119.167 82.5 -196.5v-2c0 -78 -27.833 -144 -83.5 -198s-124.834 -81 -207.501 -81zM333 119
c42 0 75.667 14 101 42s38 62.667 38 104v2c0 40.667 -13.167 75.5 -39.5 104.5s-60.166 43.5 -101.499 43.5c-42 0 -75.667 -14 -101 -42s-38 -62.667 -38 -104v-2c0 -40.667 13.167 -75.5 39.5 -104.5s60.166 -43.5 101.499 -43.5z" />
    <glyph glyph-name="p" unicode="p" horiz-adv-x="675" 
d="M68 -160v696h152v-77c42.667 58 98.334 87 167.001 87c66.667 0 124 -24.833 172 -74.5s72 -117.167 72 -202.5v-2c0 -85.333 -23.833 -152.833 -71.5 -202.5s-105.167 -74.5 -172.5 -74.5c-66.667 0 -122.334 26.667 -167.001 80v-230h-152zM348 119
c36.667 0 67.667 13.667 93 41s38 63 38 107v2c0 43.333 -12.667 78.833 -38 106.5s-56.333 41.5 -93 41.5s-67.5 -13.833 -92.5 -41.5s-37.5 -63.167 -37.5 -106.5v-2c0 -43.333 12.5 -78.833 37.5 -106.5s55.833 -41.5 92.5 -41.5z" />
    <glyph glyph-name="q" unicode="q" horiz-adv-x="675" 
d="M455 -160v237c-42.667 -58 -98.334 -87 -167.001 -87c-66.667 0 -124 24.833 -172 74.5s-72 117.167 -72 202.5v2c0 85.333 23.833 152.833 71.5 202.5s105.167 74.5 172.5 74.5c66.667 0 122.334 -26.667 167.001 -80v70h152v-696h-152zM327 119
c36.667 0 67.5 13.833 92.5 41.5s37.5 63.167 37.5 106.5v2c0 43.333 -12.5 78.833 -37.5 106.5s-55.833 41.5 -92.5 41.5s-67.667 -13.667 -93 -41s-38 -63 -38 -107v-2c0 -43.333 12.667 -78.833 38 -106.5s56.333 -41.5 93 -41.5z" />
    <glyph glyph-name="r" unicode="r" horiz-adv-x="418" 
d="M68 0v536.001h152v-108c34.667 82 91.667 121.333 171 118v-159h-8c-52 0 -92.167 -15.833 -120.5 -47.5s-42.5 -78.834 -42.5 -141.501v-198h-152z" />
    <glyph glyph-name="s" unicode="s" horiz-adv-x="502" 
d="M256 -10c-84.667 0 -161.332 27.0029 -229.999 81.0029l65 100c58.667 -42.667 115 -64 169 -64c42.667 0 64 13.333 64 40v2c0 3.33301 -0.5 6.66602 -1.5 9.99902s-2.83301 6.33301 -5.5 9s-5.5 5.16699 -8.5 7.5s-7 4.66602 -12 6.99902l-13 6
c-3.66699 1.66699 -8.83398 3.66699 -15.501 6s-12.334 4.16602 -17.001 5.49902l-19 5.5l-19 5.5c-22.667 6.66699 -42 13.5 -58 20.5s-32.5 16.5 -49.5 28.5s-30 27.5 -39 46.5s-13.5 40.833 -13.5 65.5v2c0 52.667 18.667 94.167 56 124.5s84 45.5 140 45.5
c72 0 138.667 -20.667 200 -62l-58 -105c-56.667 33.333 -105 50 -145 50c-18 0 -31.833 -3.5 -41.5 -10.5s-14.5 -15.833 -14.5 -26.5v-2c0 -16.667 19 -32 57 -46c2.66699 -0.666992 20 -6.66699 52 -18c23.333 -8 42.833 -15.5 58.5 -22.5s32.334 -16.667 50.001 -29
s31 -27.5 40 -45.5s13.5 -38.667 13.5 -62v-2c0 -57.333 -18.833 -100.5 -56.5 -129.5s-87.167 -43.5 -148.5 -43.5z" />
    <glyph glyph-name="t" unicode="t" horiz-adv-x="415" 
d="M249 -9c-50 0 -88.5 12.167 -115.5 36.5s-40.5 65.833 -40.5 124.5v254h-64v130h64v137h152v-137h126v-130h-126v-229c0 -34.667 16.333 -52 49 -52c26.667 0 51.667 6.33301 75 19v-122c-34.667 -20.667 -74.667 -31 -120 -31z" />
    <glyph glyph-name="u" unicode="u" horiz-adv-x="623" 
d="M246 -10c-57.333 0 -102 17.667 -134 53s-48 84 -48 146v347h152v-299c0 -35.333 8 -62.333 24 -81s38.667 -28 68 -28s52.5 9.33301 69.5 28s25.5 45.667 25.5 81v299h152v-536h-152v76c-44.667 -57.333 -97 -86 -157 -86z" />
    <glyph glyph-name="v" unicode="v" horiz-adv-x="600" 
d="M231 -4l-211 540h161l120 -359l121 359h158l-211 -540h-138z" />
    <glyph glyph-name="w" unicode="w" horiz-adv-x="861" 
d="M189 -4l-165 540h154l86 -325l101 327h131l102 -328l88 326h151l-167 -540h-137l-103 329l-105 -329h-136z" />
    <glyph glyph-name="x" unicode="x" horiz-adv-x="584" 
d="M23 0l188 272l-181 264h163l100 -156l101 156h159l-181 -261l189 -275h-163l-108 167l-108 -167h-159z" />
    <glyph glyph-name="y" unicode="y" horiz-adv-x="600" 
d="M196 -163c-48 0 -93 12.332 -135 36.999l51 110c23.333 -14 45 -21 65 -21c24 0 41.667 11.667 53 35l-210 538h161l122 -365l117 365h158l-206 -549c-20.667 -55.333 -44 -94.166 -70 -116.499s-61.333 -33.5 -106 -33.5z" />
    <glyph glyph-name="z" unicode="z" horiz-adv-x="563" 
d="M50 0v107l277 306h-268v123h457v-107l-278 -306h278v-123h-466z" />
    <glyph glyph-name="braceleft" unicode="{" horiz-adv-x="490" 
d="M416 -141c-88 15.333 -149 38.6699 -183 70.0029s-51 74 -51 128c0 4.66699 0.5 15.834 1.5 33.501s1.5 29.5 1.5 35.5c0 38.667 -8.33301 65.5 -25 80.5s-45 22.5 -85 22.5h-26v116h26c40 0 68.333 7.5 85 22.5s25 41.833 25 80.5c0 6 -0.5 17.833 -1.5 35.5
s-1.5 28.834 -1.5 33.501c0 54 17 96.667 51 128s95 54.666 183 69.999l27 -101c-50.667 -14.667 -83.667 -30.167 -99 -46.5s-23 -40.5 -23 -72.5c0 -6.66699 0.5 -18.834 1.5 -36.501s1.5 -30.167 1.5 -37.5c0 -66.667 -34.667 -111.334 -104 -134.001
c69.333 -22.667 104 -67.334 104 -134.001c0 -7.33301 -0.5 -19.833 -1.5 -37.5s-1.5 -29.834 -1.5 -36.501c0 -32 7.66699 -56.167 23 -72.5s48.333 -31.833 99 -46.5z" />
    <glyph glyph-name="bar" unicode="|" horiz-adv-x="350" 
d="M115 -128v926h120v-926h-120z" />
    <glyph glyph-name="braceright" unicode="}" horiz-adv-x="490" 
d="M74 -141l-27 100.996c50.667 14.667 83.667 30.167 99 46.5s23 40.5 23 72.5c0 6.66699 -0.5 18.834 -1.5 36.501s-1.5 30.167 -1.5 37.5c0 66.667 34.667 111.334 104 134.001c-69.333 22.667 -104 67.334 -104 134.001c0 7.33301 0.5 19.833 1.5 37.5
s1.5 29.834 1.5 36.501c0 32 -7.66699 56.167 -23 72.5s-48.333 31.833 -99 46.5l27 101c88 -15.333 149 -38.666 183 -69.999s51 -74 51 -128c0 -4.66699 -0.5 -15.834 -1.5 -33.501s-1.5 -29.5 -1.5 -35.5c0 -38.667 8.33301 -65.5 25 -80.5s45 -22.5 85 -22.5h26v-116
h-26c-40 0 -68.333 -7.5 -85 -22.5s-25 -41.833 -25 -80.5c0 -6 0.5 -17.833 1.5 -35.5s1.5 -28.834 1.5 -33.501c0 -54 -17 -96.667 -51 -128s-95 -54.666 -183 -69.999z" />
    <glyph glyph-name="asciitilde" unicode="~" horiz-adv-x="510" 
d="M130 224l-81 25c12.667 46 28.334 80.5 47.001 103.5s44.334 34.5 77.001 34.5c22.667 0 50.834 -6.5 84.501 -19.5s55.5 -19.5 65.5 -19.5c14.667 0 25.834 3.83301 33.501 11.5s15.5 20.167 23.5 37.5l81 -25c-12.667 -46 -28.334 -80.5 -47.001 -103.5
s-44.334 -34.5 -77.001 -34.5c-22.667 0 -50.834 6.5 -84.501 19.5s-55.5 19.5 -65.5 19.5c-14.667 0 -25.834 -3.83301 -33.501 -11.5s-15.5 -20.167 -23.5 -37.5z" />
    <glyph glyph-name="uni00A0" unicode="&#xa0;" horiz-adv-x="410" 
d="M163 238l10 270l-120 -10v83l119 -10l-13 129h92l-13 -129l119 10v-83l-120 10l10 -270h-84z" />
    <glyph glyph-name="exclamdown" unicode="&#xa1;" horiz-adv-x="480" 
d="M240 368c-46 0 -86.333 16.667 -121 50s-52 72.666 -52 117.999v2c0 45.333 17.333 84.666 52 117.999s75 50 121 50s86.333 -16.667 121 -50s52 -72.666 52 -117.999v-2c0 -45.333 -17.333 -84.666 -52 -117.999s-75 -50 -121 -50zM240 443
c26 0 47.833 9.16699 65.5 27.5s26.5 40.166 26.5 65.499v2c0 25.333 -8.83301 47.166 -26.5 65.499s-39.5 27.5 -65.5 27.5s-47.833 -9.16699 -65.5 -27.5s-26.5 -40.166 -26.5 -65.499v-2c0 -25.333 8.83301 -47.166 26.5 -65.499s39.5 -27.5 65.5 -27.5z" />
    <glyph glyph-name="cent" unicode="&#xa2;" horiz-adv-x="581" 
d="M208 -6l18.999 98c-53.333 20 -96.666 53.667 -129.999 101s-50 100.666 -50 159.999v2c0 78 26.667 144 80 198s120 81 200 81h6l14 72h104l-17 -88c39.333 -13.333 75.333 -38 108 -74l-90 -97c-18 18 -34.333 30.667 -49 38l-55 -277
c36.667 4.66699 72.667 23.334 108 56.001l86 -87c-58.667 -65.333 -130 -99 -214 -101l-16 -82h-104zM257.999 226l54 277c-34 -2.66699 -62.167 -18 -84.5 -46s-33.5 -61.333 -33.5 -100v-2c0 -60 21.333 -103 64 -129z" />
    <glyph glyph-name="sterling" unicode="&#xa3;" horiz-adv-x="644" 
d="M60 0v101.001l76 25v141h-76v127h76v81c0 74 20 131 60 171c42.667 42.667 101.667 64 177 64c93.333 0 168.333 -38.333 225 -115l-117 -94c-18 23.333 -35 40.166 -51 50.499s-34.333 15.5 -55 15.5c-23.333 0 -42.333 -7.33301 -57 -22
c-17.333 -17.333 -26 -42 -26 -74v-77h228v-127h-228v-134h304v-133h-536z" />
    <glyph glyph-name="currency" unicode="&#xa4;" horiz-adv-x="632" 
d="M325 -10c-97.333 0 -175.001 31.667 -233.001 95l82 82c48 -44 97 -66 147 -66c44 0 66 12 66 36v2c0 12 -7.5 21.833 -22.5 29.5s-44.167 16.167 -87.5 25.5c-80 18 -137 38.167 -171 60.5s-51 51.833 -51 88.5v2c0 56 29.667 95 89 117c-28 22 -42 52.333 -42 91v2
c0 48 18.167 85.833 54.5 113.5s86.5 41.5 150.5 41.5c97.333 0 175 -31.667 233 -95l-82 -82c-48 44 -97 66 -147 66c-44 0 -66 -12 -66 -36v-2c0 -11.333 7 -20.833 21 -28.5s43.667 -16.5 89 -26.5c80.667 -18 137.834 -37.833 171.501 -59.5s50.5 -51.5 50.5 -89.5v-2
c0 -56 -29.667 -95 -89 -117c28 -22 42 -52.333 42 -91v-2c0 -47.333 -18.167 -85 -54.5 -113s-86.5 -42 -150.5 -42zM388.999 289c16 0 29.167 4 39.5 12s15.5 18.667 15.5 32v2c0 12.667 -7.83301 23.334 -23.5 32.001s-41.5 17.334 -77.5 26.001
c-48 12 -81.333 18 -100 18c-16 0 -29.167 -4 -39.5 -12s-15.5 -18.667 -15.5 -32v-2c0 -12.667 7.83301 -23.334 23.5 -32.001s41.5 -17.334 77.5 -26.001c48 -12 81.333 -18 100 -18z" />
    <glyph glyph-name="yen" unicode="&#xa5;" 
d="M250 203c-41.333 0 -76.5 14.5 -105.5 43.5s-43.5 63.833 -43.5 104.5v2c0 40.667 14.5 75.5 43.5 104.5s64.167 43.5 105.5 43.5s76.5 -14.5 105.5 -43.5s43.5 -63.833 43.5 -104.5v-2c0 -40.667 -14.5 -75.5 -43.5 -104.5s-64.167 -43.5 -105.5 -43.5z" />
    <glyph glyph-name="brokenbar" unicode="&#xa6;" horiz-adv-x="590" 
d="M352 0l0.000976562 230h-24c-87.333 0 -158 20.167 -212 60.5s-81 97.833 -81 172.5v2c0 72.667 25.167 130 75.5 172s117.166 63 200.499 63h195v-700h-154z" />
    <glyph glyph-name="section" unicode="&#xa7;" horiz-adv-x="620" 
d="M299 -2v114.003c85.333 4 128 34.667 128 92v2c0 26 -11.833 47.333 -35.5 64s-54.5 27.667 -92.5 33v100c58.667 37.333 88 78.666 88 123.999v2c0 24.667 -7.16699 44.167 -21.5 58.5s-33.833 21.5 -58.5 21.5c-26 0 -47.167 -9.16699 -63.5 -27.5
s-24.5 -42.5 -24.5 -72.5v-509h-151v503c0 73.333 22 130.666 66 171.999s104 62 180 62c69.333 0 123.833 -18.167 163.5 -54.5s59.5 -82.833 59.5 -139.5v-2c0 -39.333 -8 -71.333 -24 -96s-38.333 -47 -67 -67c87.333 -38 131 -97 131 -177v-2
c0 -66 -25 -116.833 -75 -152.5s-117.667 -51.834 -203 -48.501z" />
    <glyph glyph-name="dieresis" unicode="&#xa8;" horiz-adv-x="830" 
d="M414 -12c-100.667 0 -186 35.167 -256 105.5s-105 155.166 -105 254.499v2c0 99.333 35.333 184.5 106 255.5s156.334 106.5 257.001 106.5s186 -35.167 256 -105.5s105 -155.166 105 -254.499v-2c0 -99.333 -35.333 -184.5 -106 -255.5s-156.334 -106.5 -257.001 -106.5
zM414 28c90.667 0 166.834 31.333 228.501 94s92.5 138.667 92.5 228v2c0 89.333 -30.5 165 -91.5 227s-136.833 93 -227.5 93s-166.834 -31.333 -228.501 -94s-92.5 -138.667 -92.5 -228v-2c0 -89.333 30.5 -165 91.5 -227s136.833 -93 227.5 -93zM266 168v385h171
c51.333 0 91 -14 119 -42c21.333 -21.333 32 -49.333 32 -84v-2c0 -59.333 -27.667 -99 -83 -119l94 -138h-99l-82 124h-2h-65v-124h-85zM351 365h84.999c20.667 0 36.834 5 48.501 15s17.5 23.333 17.5 40v2c0 37.333 -22.667 56 -68 56h-83v-113z" />
    <glyph glyph-name="copyright" unicode="&#xa9;" horiz-adv-x="830" 
d="M414 -12c-100.667 0 -186 35.167 -256 105.5s-105 155.166 -105 254.499v2c0 99.333 35.333 184.5 106 255.5s156.334 106.5 257.001 106.5s186 -35.167 256 -105.5s105 -155.166 105 -254.499v-2c0 -99.333 -35.333 -184.5 -106 -255.5s-156.334 -106.5 -257.001 -106.5
zM414 28c90.667 0 166.834 31.333 228.501 94s92.5 138.667 92.5 228v2c0 89.333 -30.5 165 -91.5 227s-136.833 93 -227.5 93s-166.834 -31.333 -228.501 -94s-92.5 -138.667 -92.5 -228v-2c0 -89.333 30.5 -165 91.5 -227s136.833 -93 227.5 -93zM419 156
c-56 0 -102.833 19 -140.5 57s-56.5 84.667 -56.5 140v2c0 55.333 18.833 102.333 56.5 141s85.5 58 143.5 58c60.667 0 111.334 -19.667 152.001 -59l-55 -64c-32 28.667 -64.333 43 -97 43c-31.333 0 -57.5 -11.5 -78.5 -34.5s-31.5 -50.833 -31.5 -83.5v-2
c0 -32.667 10.333 -60.5 31 -83.5s47 -34.5 79 -34.5c32.667 0 65.667 15 99 45l56 -56c-42.667 -46 -95.334 -69 -158.001 -69z" />
    <glyph glyph-name="ordfeminine" unicode="&#xaa;" horiz-adv-x="690" 
d="M345 392v308h74l81 -130l81 130h72v-308h-66v208l-85 -135h-6l-85 135v-208h-66zM118 392v246h-92v62h254v-62h-92v-246h-70z" />
    <glyph glyph-name="guillemotleft" unicode="&#xab;" 
d="M146 595l113 177l131 -57l-128 -120h-116z" />
    <glyph glyph-name="logicalnot" unicode="&#xac;" 
d="M284 595v135h146v-135h-146zM70 595v135h146v-135h-146z" />
    <glyph glyph-name="registered" unicode="&#xae;" horiz-adv-x="1045" 
d="M9 0l377 700h601v-137h-350v-142h305v-137h-305v-147h355v-137h-508v157h-235l-83 -157h-157zM321 293h163v274h-18z" />
    <glyph glyph-name="macron" unicode="&#xaf;" horiz-adv-x="850" 
d="M424 -12c-71.333 0 -135.666 16.667 -192.999 50l-39 -43h-147l98 113c-60 67.333 -90 147.333 -90 240v2c0 100.667 35.5 186.167 106.5 256.5s159.833 105.5 266.5 105.5c71.333 0 135.666 -16.667 192.999 -50l39 43h147l-98 -114c60 -66 90 -145.667 90 -239v-2
c0 -100.667 -35.5 -186.167 -106.5 -256.5s-159.833 -105.5 -266.5 -105.5zM245 227l277.999 322c-30.667 16 -63.667 24 -99 24c-61.333 0 -112.166 -21.5 -152.499 -64.5s-60.5 -95.167 -60.5 -156.5v-2c0 -44.667 11.333 -85.667 34 -123zM425.999 127
c61.333 0 112.167 21.5 152.5 64.5s60.5 95.167 60.5 156.5v2c0 44.667 -11.333 85.667 -34 123l-278 -322c30.667 -16 63.667 -24 99 -24z" />
    <glyph glyph-name="plusminus" unicode="&#xb1;" horiz-adv-x="614" 
d="M314 -12c-112 0 -204.332 39.6699 -276.999 119.003l103 100c52 -54 110.667 -81 176 -81c32.667 0 58 7.33301 76 22s27 34.667 27 60v2c0 26 -11.5 45.667 -34.5 59s-55.5 20 -97.5 20h-77v128h81c34.667 0 61.5 7.5 80.5 22.5s28.5 34.5 28.5 58.5v2
c0 22 -9 39.833 -27 53.5s-42.667 20.5 -74 20.5c-27.333 0 -52 -6.83301 -74 -20.5s-45 -33.834 -69 -60.501l-106 90c34.667 43.333 71 75.666 109 96.999s85.333 32 142 32c75.333 0 135.833 -17.5 181.5 -52.5s68.5 -80.167 68.5 -135.5v-2c0 -74 -30.667 -128 -92 -162
c35.333 -15.333 62.666 -34.833 81.999 -58.5s29 -54.834 29 -93.501v-2c0 -64 -22.667 -116.333 -68 -157s-108 -61 -188 -61z" />
    <glyph glyph-name="acute" unicode="&#xb4;" horiz-adv-x="686" 
d="M269 0v92h-184v108h184v62h-184v108h143l-214 330h177l154 -259l155 259h172l-216 -330h145v-108h-184v-62h184v-108h-184v-92h-148z" />
    <glyph glyph-name="uni00B5" unicode="&#xb5;" horiz-adv-x="850" 
d="M635 -101l-105 103c-34 -9.33301 -69.333 -14 -106 -14c-106.667 0 -195.167 34.833 -265.5 104.5s-105.5 154.834 -105.5 255.501v2c0 100.667 35.5 186.167 106.5 256.5s159.833 105.5 266.5 105.5s195.167 -34.833 265.5 -104.5s105.5 -154.834 105.5 -255.501v-2
c0 -105.333 -37.667 -193 -113 -263l177 -178v-10h-226zM426 130c61.333 0 111.666 21 150.999 63s59 93.667 59 155v2c0 61.333 -20 113.333 -60 156s-90.667 64 -152 64s-111.666 -21 -150.999 -63s-59 -93.667 -59 -155v-2c0 -61.333 20 -113.333 60 -156
s90.667 -64 152 -64z" />
    <glyph glyph-name="uni00B9" unicode="&#xb9;" horiz-adv-x="830" 
d="M414 -12c-100.667 0 -186 35.167 -256 105.5s-105 155.166 -105 254.499v2c0 99.333 35.333 184.5 106 255.5s156.334 106.5 257.001 106.5s186 -35.167 256 -105.5s105 -155.166 105 -254.499v-2c0 -99.333 -35.333 -184.5 -106 -255.5s-156.334 -106.5 -257.001 -106.5
zM414 28c90.667 0 166.834 31.333 228.501 94s92.5 138.667 92.5 228v2c0 89.333 -30.5 165 -91.5 227s-136.833 93 -227.5 93s-166.834 -31.333 -228.501 -94s-92.5 -138.667 -92.5 -228v-2c0 -89.333 30.5 -165 91.5 -227s136.833 -93 227.5 -93zM282 164
l-0.000976562 385h158c45.333 0 81.333 -12.167 108 -36.5s40 -56.5 40 -96.5v-2c0 -42.667 -14.667 -75.667 -44 -99s-66.666 -35 -111.999 -35h-64v-116h-86zM367.999 355h65.999c20.667 0 37 5.5 49 16.5s18 24.833 18 41.5v2c0 18 -6.16699 32.167 -18.5 42.5
s-29.166 15.5 -50.499 15.5h-64v-118z" />
    <glyph glyph-name="guillemotright" unicode="&#xbb;" horiz-adv-x="390" 
d="M153 399c-29.333 0 -53.5 7.99902 -72.5 23.999s-28.5 38 -28.5 66v2c0 30.667 10.667 54 32 70s50.333 24 87 24c24 0 48 -4 72 -12v5c0 36 -21.333 54 -64 54c-25.333 0 -52.333 -5.33301 -81 -16l-21 63c35.333 16 73.333 24 114 24c44.667 0 78 -11 100 -33
c21.333 -21.333 32 -52.666 32 -93.999v-171h-81v32c-22 -25.333 -51.667 -38 -89 -38zM49 276.999v66h278v-66h-278zM178 456.999c19.333 0 35.168 4.83398 47.501 14.501s18.5 22.167 18.5 37.5v15c-18.667 7.33301 -36.667 11 -54 11c-38 0 -57 -13.333 -57 -40v-2
c0 -10.667 4.16699 -19.334 12.5 -26.001s19.166 -10 32.499 -10z" />
    <glyph glyph-name="onequarter" unicode="&#xbc;" horiz-adv-x="390" 
d="M194 398c-44 0 -80.5 14.667 -109.5 44s-43.5 65.333 -43.5 108v2c0 42.667 14.833 78.834 44.5 108.501s66.5 44.5 110.5 44.5s80.5 -14.667 109.5 -44s43.5 -65.333 43.5 -108v-2c0 -42.667 -14.833 -78.834 -44.5 -108.501s-66.5 -44.5 -110.5 -44.5zM51 277v66h288
v-66h-288zM196 470c21.333 0 38.5 7.83301 51.5 23.5s19.5 34.5 19.5 56.5v2c0 22 -6.83301 41 -20.5 57s-31.167 24 -52.5 24s-38.5 -7.83301 -51.5 -23.5s-19.5 -34.5 -19.5 -56.5v-2c0 -22 6.83301 -41 20.5 -57s31.167 -24 52.5 -24z" />
    <glyph glyph-name="onehalf" unicode="&#xbd;" horiz-adv-x="764" 
d="M476 0v406h-63v125h63v34c0 58 14.333 101.333 43 130c28 28 69 42 123 42c40.667 0 76.667 -5 108 -15v-126c-24 8.66699 -47 13 -69 13c-36.667 0 -55 -19.333 -55 -58v-21h123v-124h-121v-406h-152zM94 0v406h-63v125h63v34c0 58 14.333 101.333 43 130
c28 28 69 42 123 42c40.667 0 76.667 -5 108 -15v-126c-24 8.66699 -47 13 -69 13c-36.667 0 -55 -19.333 -55 -58v-21h123v-124h-121v-406h-152z" />
    <glyph glyph-name="threequarters" unicode="&#xbe;" horiz-adv-x="951" 
d="M238 -10c-59.333 0 -107.833 14.667 -145.5 44s-56.5 69.333 -56.5 120v2c0 56.667 19.5 99.334 58.5 128.001s91.5 43 157.5 43c44.667 0 88.334 -7.33301 131.001 -22v9c0 65.333 -38.333 98 -115 98c-46 0 -95.333 -9.66699 -148 -29l-38 116
c65.333 28.667 134.666 43 207.999 43c84 0 144.667 -22.667 182 -68c46.667 48 105.667 72 177 72c55.333 0 103 -14 143 -42s69 -63.333 87 -106s27 -90.334 27 -143.001c0 -8 -0.666992 -21.333 -2 -40h-373c7.33301 -34 22.333 -60 45 -78s51.334 -27 86.001 -27
c47.333 0 90.666 18.333 129.999 55l87 -77c-54 -66.667 -127 -100 -219 -100c-83.333 0 -151.333 27 -204 81c-71.333 -52.667 -144 -79 -218 -79zM529 310l229.001 -0.00195312c-4.66699 34.667 -16.834 62.334 -36.501 83.001s-45.167 31 -76.5 31
c-30.667 0 -56.167 -10.167 -76.5 -30.5s-33.5 -48.166 -39.5 -83.499zM266.001 96.998c47.333 0 93.001 16.999 137.001 50.999c-10 23.333 -16.333 46.333 -19 69c-30 12.667 -62 19 -96 19c-32.667 0 -58.334 -6.33301 -77.001 -19s-28 -31 -28 -55v-2
c0 -19.333 8 -34.666 24 -45.999s35.667 -17 59 -17z" />
    <glyph glyph-name="questiondown" unicode="&#xbf;" horiz-adv-x="664" 
d="M331 -12c-51.333 0 -99.333 11.667 -144 35l-27 -28h-133l80 92c-43.333 50.667 -65 110 -65 178v2c0 78 27.833 144 83.5 198s124.834 81 207.501 81c52 0 99.667 -11.667 143 -35l28 30h133l-81 -93c44 -50 66 -109.667 66 -179v-2c0 -78 -27.833 -144 -83.5 -198
s-124.834 -81 -207.501 -81zM204 197l184 210c-17.333 8 -36.333 12 -57 12c-43.333 0 -78 -14.5 -104 -43.5s-39 -64.5 -39 -106.5v-2c0 -24 5.33301 -47.333 16 -70zM333 115c43.333 0 78 14.5 104 43.5s39 64.5 39 106.5v2c0 24 -5.33301 47.333 -16 70l-184 -211
c18 -7.33301 37 -11 57 -11z" />
    <glyph glyph-name="Agrave" unicode="&#xc0;" horiz-adv-x="544" 
d="M218 540v160h162v-160h-162zM279 -9c-73.333 0 -132 18.168 -176 54.501s-66 87.166 -66 152.499v2c0 107.333 65.667 174.333 197 201l11 61h102l23 -162l-5 -5c-116.667 -4.66699 -175 -35 -175 -91v-2c0 -22.667 8 -40.167 24 -52.5s38.667 -18.5 68 -18.5
c54 0 104 23 150 69l92 -101c-65.333 -72 -147 -108 -245 -108z" />
    <glyph glyph-name="Aacute" unicode="&#xc1;" horiz-adv-x="324" 
d="M81 540v160h162v-160h-162zM73 0v20l47 442h84l47 -442v-20h-178z" />
    <glyph glyph-name="Atilde" unicode="&#xc3;" horiz-adv-x="1066" 
d="M476 0v406h-63v125h63v34c0 58 14.333 101.333 43 130c28 28 69 42 123 42c40.667 0 76.667 -5 108 -15v-126c-24 8.66699 -47 13 -69 13c-36.667 0 -55 -19.333 -55 -58v-21h123v-124h-121v-406h-152zM94 0v406h-63v125h63v34c0 58 14.333 101.333 43 130
c28 28 69 42 123 42c40.667 0 76.667 -5 108 -15v-126c-24 8.66699 -47 13 -69 13c-36.667 0 -55 -19.333 -55 -58v-21h123v-124h-121v-406h-152zM839 0v730h152v-730h-152z" />
    <glyph glyph-name="Adieresis" unicode="&#xc4;" horiz-adv-x="536" 
d="M100 -5c-24 0 -43.6631 1.66699 -58.9961 5v123c13.333 -2 25.666 -3 36.999 -3c21.333 0 37.333 4.66699 48 14s18 25 22 47l28 163h-67v125h89l14 74c10 54 29.667 94.5 59 121.5s72.666 40.5 129.999 40.5c40.667 0 73.667 -4 99 -12v-126
c-26.667 6.66699 -49.334 10 -68.001 10c-42 0 -67 -22.667 -75 -68l-7 -40h115v-125h-137l-33 -187c-10.667 -58 -31.334 -99.5 -62.001 -124.5s-75 -37.5 -133 -37.5z" />
    <glyph glyph-name="Aring" unicode="&#xc5;" horiz-adv-x="1066" 
d="M835 595v135h160v-135h-160zM476 0v406h-63v125h63v34c0 58 14.333 101.333 43 130c28 28 69 42 123 42c40.667 0 76.667 -5 108 -15v-126c-24 8.66699 -47 13 -69 13c-36.667 0 -55 -19.333 -55 -58v-21h123v-124h-121v-406h-152zM94 0v406h-63v125h63v34
c0 58 14.333 101.333 43 130c28 28 69 42 123 42c40.667 0 76.667 -5 108 -15v-126c-24 8.66699 -47 13 -69 13c-36.667 0 -55 -19.333 -55 -58v-21h123v-124h-121v-406h-152zM839 0v536h152v-536h-152z" />
    <glyph glyph-name="Ccedilla" unicode="&#xc7;" horiz-adv-x="645" 
d="M481 40l-168 224v8l168 224l116 -56l-130 -171l130 -171zM209 40l-168 224v8l168 224l116 -56l-130 -171l130 -171z" />
    <glyph glyph-name="Egrave" unicode="&#xc8;" horiz-adv-x="645" 
d="M436 40l-116 56l130 171l-130 171l116 58l168 -224v-8zM164 40l-116 56l130 171l-130 171l116 58l168 -224v-8z" />
    <glyph glyph-name="Eacute" unicode="&#xc9;" horiz-adv-x="840" 
d="M620 0v156h158v-156h-158zM341 0v156h158v-156h-158zM62 0v156h158v-156h-158z" />
    <glyph glyph-name="Ecircumflex" unicode="&#xca;" horiz-adv-x="300" 
 />
    <glyph glyph-name="Edieresis" unicode="&#xcb;" horiz-adv-x="790" 
d="M24 0l300 705h142l300 -705h-161l-64 157h-296l-64 -157h-157zM300 293h186l-93 227zM343 755l-128 120l131 57l113 -177h-116z" />
    <glyph glyph-name="Igrave" unicode="&#xcc;" horiz-adv-x="790" 
d="M24 0l300 705h142l300 -705h-161l-64 157h-296l-64 -157h-157zM300 293h186l-93 227zM270 745l-81 25c12.667 46 28.334 80.5 47.001 103.5s44.334 34.5 77.001 34.5c22.667 0 50.834 -6.5 84.501 -19.5s55.5 -19.5 65.5 -19.5c14.667 0 25.834 3.83301 33.501 11.5
s15.5 20.167 23.5 37.5l81 -25c-12.667 -46 -28.334 -80.5 -47.001 -103.5s-44.334 -34.5 -77.001 -34.5c-22.667 0 -50.834 6.5 -84.501 19.5s-55.5 19.5 -65.5 19.5c-14.667 0 -25.834 -3.83301 -33.501 -11.5s-15.5 -20.167 -23.5 -37.5z" />
    <glyph glyph-name="Iacute" unicode="&#xcd;" horiz-adv-x="850" 
d="M424 -12c-106.667 0 -195.167 34.833 -265.5 104.5s-105.5 154.834 -105.5 255.501v2c0 100.667 35.5 186.167 106.5 256.5s159.833 105.5 266.5 105.5s195.167 -34.833 265.5 -104.5s105.5 -154.834 105.5 -255.501v-2c0 -100.667 -35.5 -186.167 -106.5 -256.5
s-159.833 -105.5 -266.5 -105.5zM426 130c61.333 0 111.666 21 150.999 63s59 93.667 59 155v2c0 61.333 -20 113.333 -60 156s-90.667 64 -152 64s-111.666 -21 -150.999 -63s-59 -93.667 -59 -155v-2c0 -61.333 20 -113.333 60 -156s90.667 -64 152 -64zM300 745l-81 25
c12.667 46 28.334 80.5 47.001 103.5s44.334 34.5 77.001 34.5c22.667 0 50.834 -6.5 84.501 -19.5s55.5 -19.5 65.5 -19.5c14.667 0 25.834 3.83301 33.501 11.5s15.5 20.167 23.5 37.5l81 -25c-12.667 -46 -28.334 -80.5 -47.001 -103.5s-44.334 -34.5 -77.001 -34.5
c-22.667 0 -50.834 6.5 -84.501 19.5s-55.5 19.5 -65.5 19.5c-14.667 0 -25.834 -3.83301 -33.501 -11.5s-15.5 -20.167 -23.5 -37.5z" />
    <glyph glyph-name="Icircumflex" unicode="&#xce;" horiz-adv-x="1075" 
d="M425 0c-108.667 0 -197.834 33.168 -267.501 99.501s-104.5 149.166 -104.5 248.499v2c0 100 34.833 183.333 104.5 250s158.834 100 267.501 100h592v-137h-350v-142h305v-137h-305v-147h355v-137h-597zM425 139.001h89v422h-89c-62.667 0 -113.5 -19.333 -152.5 -58
s-58.5 -89 -58.5 -151v-2c0 -62 19.5 -112.667 58.5 -152s89.833 -59 152.5 -59z" />
    <glyph glyph-name="Idieresis" unicode="&#xcf;" horiz-adv-x="1033" 
d="M322 -12c-76.667 0 -142.502 27.001 -197.502 81.001s-82.5 119.333 -82.5 196v2c0 77.333 27.833 143.166 83.5 197.499s123.167 81.5 202.5 81.5c82.667 0 150 -29.667 202 -89c50.667 59.333 116.334 89 197.001 89c84.667 0 149.334 -28 194.001 -84s67 -125 67 -207
c0 -8 -0.666992 -21.333 -2 -40h-373c7.33301 -34 22.333 -60 45 -78s51.334 -27 86.001 -27c47.333 0 90.666 18.333 129.999 55l87 -77c-54 -66.667 -127 -100 -219 -100c-88.667 0 -160 30.333 -214 91c-53.333 -60.667 -122 -91 -206 -91zM610.998 310.001
l229.001 -0.00195312c-4.66699 34.667 -16.834 62.334 -36.501 83.001s-45.167 31 -76.5 31c-30.667 0 -56.167 -10.167 -76.5 -30.5s-33.5 -48.166 -39.5 -83.499zM327.999 118.999c40.667 0 73.167 14 97.5 42s36.5 62.667 36.5 104v2c0 40.667 -12.833 75.5 -38.5 104.5
s-58.167 43.5 -97.5 43.5c-40.667 0 -73.167 -14.333 -97.5 -43s-36.5 -63 -36.5 -103v-2c0 -40.667 12.833 -75.5 38.5 -104.5s58.167 -43.5 97.5 -43.5z" />
    <glyph glyph-name="Eth" unicode="&#xd0;" horiz-adv-x="528" 
d="M50 239v142h428v-142h-428z" />
    <glyph glyph-name="Ntilde" unicode="&#xd1;" horiz-adv-x="898" 
d="M50 239v142h798v-142h-798z" />
    <glyph glyph-name="Ograve" unicode="&#xd2;" horiz-adv-x="540" 
d="M311 383l0.000976562 135c0 64 15.5 110.833 46.5 140.5s77.167 45.167 138.5 46.5l13 -63c-70.667 -7.33301 -103.334 -40.333 -98.001 -99h62v-160h-162zM57.001 383l0.000976562 135c0 64 15.5 110.833 46.5 140.5s77.167 45.167 138.5 46.5l13 -63
c-70.667 -7.33301 -103.334 -40.333 -98.001 -99h62v-160h-162z" />
    <glyph glyph-name="Oacute" unicode="&#xd3;" horiz-adv-x="540" 
d="M298 378l-13.001 63c70.667 7.33301 103.334 40.333 98.001 99h-62v160h162v-135c0 -64 -15.5 -110.833 -46.5 -140.5s-77.167 -45.167 -138.5 -46.5zM43.999 378l-13.001 63c70.667 7.33301 103.334 40.333 98.001 99h-62v160h162v-135
c0 -64 -15.5 -110.833 -46.5 -140.5s-77.167 -45.167 -138.5 -46.5z" />
    <glyph glyph-name="Ocircumflex" unicode="&#xd4;" horiz-adv-x="286" 
d="M57 383l0.000976562 135c0 64 15.5 110.833 46.5 140.5s77.167 45.167 138.5 46.5l13 -63c-70.667 -7.33301 -103.334 -40.333 -98.001 -99h62v-160h-162z" />
    <glyph glyph-name="Otilde" unicode="&#xd5;" horiz-adv-x="286" 
d="M44 378l-13.001 63c70.667 7.33301 103.334 40.333 98.001 99h-62v160h162v-135c0 -64 -15.5 -110.833 -46.5 -140.5s-77.167 -45.167 -138.5 -46.5z" />
    <glyph glyph-name="Oslash" unicode="&#xd8;" horiz-adv-x="600" 
d="M196 -163c-48 0 -93 12.332 -135 36.999l51 110c23.333 -14 45 -21 65 -21c24 0 41.667 11.667 53 35l-210 538h161l122 -365l117 365h158l-206 -549c-20.667 -55.333 -44 -94.166 -70 -116.499s-61.333 -33.5 -106 -33.5zM334 594.999v135h146v-135h-146zM120 594.999
v135h146v-135h-146z" />
    <glyph glyph-name="Ugrave" unicode="&#xd9;" horiz-adv-x="716" 
d="M281 0v276l-269 424h180l167 -281l170 281h175l-269 -421v-279h-154zM392 755v135h146v-135h-146zM178 755v135h146v-135h-146z" />
    <glyph glyph-name="Uacute" unicode="&#xda;" horiz-adv-x="480" 
d="M-71 -98l466 856h134l-466 -856h-134z" />
    <glyph glyph-name="Ucircumflex" unicode="&#xdb;" horiz-adv-x="720" 
d="M437 -12c-74.667 0 -137.665 20.501 -188.998 61.501s-87 96.833 -107 167.5h-92v101h75c-0.666992 6.66699 -1 16.667 -1 30v2c0 16 0.333008 28 1 36h-75v101h94c21.333 68 57.333 122.5 108 163.5s111.667 61.5 183 61.5c58 0 106.167 -11 144.5 -33
s72.166 -53.667 101.499 -95l-116 -88c-20 26.667 -40.167 46.5 -60.5 59.5s-44.5 19.5 -72.5 19.5c-58 0 -100.667 -29.333 -128 -88h185v-101h-208c-0.666992 -7.33301 -1 -18.666 -1 -33.999v-2c0 -14.667 0.333008 -25.334 1 -32.001h208v-101h-186
c27.333 -61.333 72.333 -92 135 -92c27.333 0 50.666 6.33301 69.999 19s41 33.667 65 63l110 -81c-32 -44.667 -67.333 -78.834 -106 -102.501s-85 -35.5 -139 -35.5z" />
    <glyph glyph-name="Udieresis" unicode="&#xdc;" horiz-adv-x="373" 
d="M209 40l-168 224v8l168 224l116 -56l-130 -171l130 -171z" />
    <glyph glyph-name="Yacute" unicode="&#xdd;" horiz-adv-x="373" 
d="M164 40l-116 56l130 171l-130 171l116 58l168 -224v-8z" />
    <glyph glyph-name="Thorn" unicode="&#xde;" horiz-adv-x="684" 
d="M453 595v135h160v-135h-160zM94 0v406h-63v125h63v34c0 58 14.333 101.333 43 130c28 28 69 42 123 42c40.667 0 76.667 -5 108 -15v-126c-24 8.66699 -47 13 -69 13c-36.667 0 -55 -19.333 -55 -58v-21h123v-124h-121v-406h-152zM457 0v536h152v-536h-152z" />
    <glyph glyph-name="germandbls" unicode="&#xdf;" horiz-adv-x="684" 
d="M94 0v406h-63v125h63v34c0 58 14.333 101.333 43 130c28 28 69 42 123 42c40.667 0 76.667 -5 108 -15v-126c-24 8.66699 -47 13 -69 13c-36.667 0 -55 -19.333 -55 -58v-21h123v-124h-121v-406h-152zM457 0v730h152v-730h-152z" />
    <glyph glyph-name="agrave" unicode="&#xe0;" horiz-adv-x="430" 
d="M169 0l13 129l-119 -10v83l119 -10l-9 158l9 158l-119 -10v83l119 -10l-13 129h92l-13 -129l119 10v-83l-119 10l9 -158l-9 -158l119 10v-83l-119 10l13 -129h-92z" />
    <glyph glyph-name="aacute" unicode="&#xe1;" horiz-adv-x="286" 
d="M62 230v160h162v-160h-162z" />
    <glyph glyph-name="acircumflex" unicode="&#xe2;" horiz-adv-x="286" 
d="M39 -162l-13.001 63c70.667 7.33301 103.334 40.333 98.001 99h-62v160h162v-135c0 -64 -15.5 -110.833 -46.5 -140.5s-77.167 -45.167 -138.5 -46.5z" />
    <glyph glyph-name="atilde" unicode="&#xe3;" horiz-adv-x="540" 
d="M293 -162l-13.001 63c70.667 7.33301 103.334 40.333 98.001 99h-62v160h162v-135c0 -64 -15.5 -110.833 -46.5 -140.5s-77.167 -45.167 -138.5 -46.5zM38.999 -162l-13.001 63c70.667 7.33301 103.334 40.333 98.001 99h-62v160h162v-135
c0 -64 -15.5 -110.833 -46.5 -140.5s-77.167 -45.167 -138.5 -46.5z" />
    <glyph glyph-name="adieresis" unicode="&#xe4;" horiz-adv-x="1240" 
d="M214 350c-49.333 0 -89.833 17 -121.5 51s-47.5 76 -47.5 126v2c0 50.667 16 93.167 48 127.5s73 51.5 123 51.5c49.333 0 89.833 -17 121.5 -51s47.5 -76 47.5 -126v-2c0 -50 -16 -92.333 -48 -127s-73 -52 -123 -52zM115 0l511 700h119l-511 -700h-119zM1024 -8
c-49.333 0 -89.833 17 -121.5 51s-47.5 76 -47.5 126v2c0 50.667 16 93.167 48 127.5s73 51.5 123 51.5c49.333 0 89.833 -17 121.5 -51s47.5 -76 47.5 -126v-2c0 -50 -16 -92.333 -48 -127s-73 -52 -123 -52zM644 -8c-49.333 0 -89.833 17 -121.5 51s-47.5 76 -47.5 126v2
c0 50.667 16 93.167 48 127.5s73 51.5 123 51.5c49.333 0 89.833 -17 121.5 -51s47.5 -76 47.5 -126v-2c0 -50 -16 -92.333 -48 -127s-73 -52 -123 -52zM216 441c20 0 35.667 8.33301 47 25s17 37 17 61v2c0 24 -6.16699 44.667 -18.5 62s-28.166 26 -47.499 26
c-20 0 -35.667 -8.33301 -47 -25s-17 -37 -17 -61v-2c0 -24 6.16699 -44.667 18.5 -62s28.166 -26 47.499 -26zM1026 83c20 0 35.667 8.33301 47 25s17 37 17 61v2c0 24 -6.16699 44.667 -18.5 62s-28.166 26 -47.499 26c-20 0 -35.667 -8.33301 -47 -25s-17 -37 -17 -61v-2
c0 -24 6.16699 -44.667 18.5 -62s28.166 -26 47.499 -26zM646 83c20 0 35.667 8.33301 47 25s17 37 17 61v2c0 24 -6.16699 44.667 -18.5 62s-28.166 26 -47.499 26c-20 0 -35.667 -8.33301 -47 -25s-17 -37 -17 -61v-2c0 -24 6.16699 -44.667 18.5 -62
s28.166 -26 47.499 -26z" />
    <glyph glyph-name="aring" unicode="&#xe5;" horiz-adv-x="790" 
d="M24 0l300 705h142l300 -705h-161l-64 157h-296l-64 -157h-157zM300 293h186l-93 227zM200 755l123 157h144l123 -157h-117l-79 66l-79 -66h-115z" />
    <glyph glyph-name="ae" unicode="&#xe6;" horiz-adv-x="670" 
d="M84 0v700h528v-137h-375v-142h330v-137h-330v-147h380v-137h-533zM151 755l123 157h144l123 -157h-117l-79 66l-79 -66h-115z" />
    <glyph glyph-name="ccedilla" unicode="&#xe7;" horiz-adv-x="790" 
d="M24 0l300 705h142l300 -705h-161l-64 157h-296l-64 -157h-157zM300 293h186l-93 227zM331 755l113 177l131 -57l-128 -120h-116z" />
    <glyph glyph-name="egrave" unicode="&#xe8;" horiz-adv-x="670" 
d="M84 0v700h528v-137h-375v-142h330v-137h-330v-147h380v-137h-533zM380 755v135h146v-135h-146zM166 755v135h146v-135h-146z" />
    <glyph glyph-name="eacute" unicode="&#xe9;" horiz-adv-x="670" 
d="M84 0v700h528v-137h-375v-142h330v-137h-330v-147h380v-137h-533zM317 755l-128 120l131 57l113 -177h-116z" />
    <glyph glyph-name="ecircumflex" unicode="&#xea;" horiz-adv-x="336" 
d="M91 0v700h154v-700h-154zM104 755l113 177l131 -57l-128 -120h-116z" />
    <glyph glyph-name="edieresis" unicode="&#xeb;" horiz-adv-x="336" 
d="M91 0v700h154v-700h-154zM-27 755l123 157h144l123 -157h-117l-79 66l-79 -66h-115z" />
    <glyph glyph-name="igrave" unicode="&#xec;" horiz-adv-x="336" 
d="M91 0v700h154v-700h-154zM202 755v135h146v-135h-146zM-12 755v135h146v-135h-146z" />
    <glyph glyph-name="iacute" unicode="&#xed;" horiz-adv-x="336" 
d="M91 0v700h154v-700h-154zM116 755l-128 120l131 57l113 -177h-116z" />
    <glyph glyph-name="icircumflex" unicode="&#xee;" horiz-adv-x="850" 
d="M424 -12c-106.667 0 -195.167 34.833 -265.5 104.5s-105.5 154.834 -105.5 255.501v2c0 100.667 35.5 186.167 106.5 256.5s159.833 105.5 266.5 105.5s195.167 -34.833 265.5 -104.5s105.5 -154.834 105.5 -255.501v-2c0 -100.667 -35.5 -186.167 -106.5 -256.5
s-159.833 -105.5 -266.5 -105.5zM426 130c61.333 0 111.666 21 150.999 63s59 93.667 59 155v2c0 61.333 -20 113.333 -60 156s-90.667 64 -152 64s-111.666 -21 -150.999 -63s-59 -93.667 -59 -155v-2c0 -61.333 20 -113.333 60 -156s90.667 -64 152 -64zM371 755l113 177
l131 -57l-128 -120h-116z" />
    <glyph glyph-name="idieresis" unicode="&#xef;" horiz-adv-x="850" 
d="M424 -12c-106.667 0 -195.167 34.833 -265.5 104.5s-105.5 154.834 -105.5 255.501v2c0 100.667 35.5 186.167 106.5 256.5s159.833 105.5 266.5 105.5s195.167 -34.833 265.5 -104.5s105.5 -154.834 105.5 -255.501v-2c0 -100.667 -35.5 -186.167 -106.5 -256.5
s-159.833 -105.5 -266.5 -105.5zM426 130c61.333 0 111.666 21 150.999 63s59 93.667 59 155v2c0 61.333 -20 113.333 -60 156s-90.667 64 -152 64s-111.666 -21 -150.999 -63s-59 -93.667 -59 -155v-2c0 -61.333 20 -113.333 60 -156s90.667 -64 152 -64zM230 755l123 157
h144l123 -157h-117l-79 66l-79 -66h-115z" />
    <glyph glyph-name="eth" unicode="&#xf0;" horiz-adv-x="967" 
d="M868 0h-767v750h767v-750zM859 -104h-6l-3 20l-10 -21h-2l-10 21l-3 -20h-6l6 34h1l13 -26l13 26h1zM806 -87c0 -12 -5.66699 -18 -17 -18c-4.66699 0 -8.66699 1.66699 -12 5s-5 7.33301 -5 12c0 12 6 18 18 18c4.66699 0 8.5 -1.66699 11.5 -5s4.5 -7.33301 4.5 -12z
M758 -96l-1.00195 -5.99902c-2 -2 -5.33301 -3 -10 -3c-12 0 -18 5.66699 -18 17c0 5.33301 1.83301 9.66602 5.5 12.999s7.83398 5 12.501 5s8.33398 -1 11.001 -3l-2 -5c-2 2 -5 3 -9 3c-8 0 -12 -4 -12 -12c0 -8.66699 4.33301 -13 13 -13c2.66699 0 6 1.33301 10 4z
M701.998 -70.999l-13 -19v-14h-6v14l-14 19l6 1l11 -15l9 14h7zM655.998 -103.999h-6v15h-16v-15h-6v33h6v-13h16v13h6v-33zM611.998 -81.999c0 -8 -5.66699 -12 -17 -12v-10h-6v33c15.333 2 23 -1.66699 23 -11zM575.998 -103.999h-6l-4 8h-14l-3 -8h-6l15 34h2z
M533.998 -103.999h-7l-8 11h-5v-11h-6v33c15.333 2 23 -1.33301 23 -10c0 -4.66699 -2.33301 -8 -7 -10zM490.998 -100.999c-4 -2.66699 -8.33203 -3.99902 -12.999 -3.99902c-12 0 -18 5.66699 -18 17c0 5.33301 1.83301 9.66602 5.5 12.999s8.16699 5 13.5 5
c4 0 8 -1.33301 12 -4l-2 -5c-2.66699 2.66699 -6.33398 4 -11.001 4c-8 0 -12 -4.33301 -12 -13c0 -8 4.33301 -12 13 -12c1.33301 0 3.33301 0.666992 6 2v7h-9v5h15v-15zM446.999 -86.998c0 -12 -5.66699 -18 -17 -18c-4.66699 0 -8.66699 1.66699 -12 5
s-5 7.33301 -5 12c0 12 6 18 18 18c4.66699 0 8.5 -1.66699 11.5 -5s4.5 -7.33301 4.5 -12zM399.999 -81.998c0 -8 -5.66699 -12 -17 -12v-10h-6v33c15.333 2 23 -1.66699 23 -11zM363.999 -70.998l-13 -19v-14h-6v14l-14 19l6 1l11 -15l9 14h7zM322.999 -70.998v-5h-12v-28
h-6v28h-12v5h30zM266.999 -70.998l-12 -34h-1l-11 23l-10 -23h-1l-12 34l6 1l7 -23l10 23h1l10 -23l7 22h6zM210.999 -70.998l-12 -34h-1l-11 23l-10 -23h-1l-12 34l6 1l7 -23l10 23h1l10 -23l7 22h6zM154.999 -70.998l-12 -34h-1l-11 23l-10 -23h-1l-12 34l6 1l7 -23l10 23
h1l10 -23l7 22h6zM715.999 -100.998c0 -2.66699 -1.33301 -4 -4 -4s-4 1.33301 -4 4s1.33301 4 4 4s4 -1.33301 4 -4zM283.999 -100.998c0 -2.66699 -1.33301 -4 -4 -4s-4 1.33301 -4 4s1.33301 4 4 4s4 -1.33301 4 -4zM558.999 686.002c0 5.33301 -0.333008 9.33301 -1 12
c-1.33301 -0.666992 -7 -1 -17 -1s-16 0.333008 -18 1l-1 -12h2c2.66699 6 6 9 10 9c2 0 3 -1 3 -3v-23c-0.666992 -3.33301 -2.33398 -5 -5.00098 -5v-2h17v2l-4 2c-0.666992 0.666992 -1 1.66699 -1 3v23c0 2 1 3 3 3s3.83301 -0.833008 5.5 -2.5
s2.83398 -3.16699 3.50098 -4.5l1 -2h2zM503.999 662.002l0.000976562 2.00098c-4 -0.666992 -6 1 -6 5v21c0 3.33301 2 5 6 5v2h-18v-1v-1l4 -2c0.666992 -0.666992 1 -1.66699 1 -3v-9h-17v9c0.666992 3.33301 2.33398 5 5.00098 5v1v1h-17v-2l4 -2
c0.666992 -0.666992 1 -1.66699 1 -3v-21c-0.666992 -2.66699 -2.33398 -4.33398 -5.00098 -5.00098v-2h17v2c-3.33301 0 -5 1.66699 -5 5v10h17v-10c-0.666992 -3.33301 -2.33398 -5 -5.00098 -5v-2h18zM439 664.003l-4 2c-0.666992 0.666992 -1 1.66699 -1 3v21
c0.666992 3.33301 2.33398 5 5.00098 5v2h-29l-2 -10l2 -1c2 5.33301 5 8 9 8h4c2.66699 0 4 -1 4 -3v-10h-4c-3.33301 0 -5.33301 1.66699 -6 5h-2v-13h2c0 4 2 6 6 6h4v-11c0 -2 -1.33301 -3 -4 -3h-4c-2 0 -3.83301 0.833008 -5.5 2.5s-2.83398 3.16699 -3.50098 4.5
l-1 2l-2 -1l2 -11h30v2zM827 618.003v6h-685v-6h685zM696 540.003c0 10 -3.83301 18.833 -11.5 26.5s-16.167 11.5 -25.5 11.5c-5.33301 0 -10.5 -1.83301 -15.5 -5.5s-7.5 -9.16699 -7.5 -16.5c0 -10.667 3.66699 -19.667 11 -27s16 -11 26 -11
c5.33301 0 10.5 1.83301 15.5 5.5s7.5 9.16699 7.5 16.5zM589 537.003c0 8 -4.66602 13.667 -13.999 17c3.33301 2 5 5 5 9c0 10 -7 15 -21 15c-8.66699 0 -13 -3.66699 -13 -11c0 -4 1.66699 -6 5 -6c2.66699 0 4 1 4 3c0 1.33301 -0.5 2.5 -1.5 3.5s-1.5 1.83301 -1.5 2.5
c0 3.33301 2.33301 5 7 5c6.66699 0 10 -4 10 -12c0 -2.66699 -0.666992 -4.66699 -2 -6c-10.667 1.33301 -16 -0.666992 -16 -6c0 -4 2.66699 -6 8 -6c4 0 7.66699 1.66699 11 5c4 -2.66699 6 -7.66699 6 -15c0 -9.33301 -4 -14 -12 -14s-12 3 -12 9c0 2 1 3 3 3l1 -1
c1.33301 -0.666992 2.66602 -1 3.99902 -1c2.66699 0 4 1.66699 4 5s-2.33301 5 -7 5c-6 0 -9 -3.33301 -9 -10c0 -8.66699 5.33301 -13 16 -13c16.667 0 25 6.33301 25 19zM295.001 537.003c0 8 -4.66602 13.667 -13.999 17c3.33301 2 5 5 5 9c0 10 -7 15 -21 15
c-8.66699 0 -13 -3.66699 -13 -11c0 -4 1.66699 -6 5 -6c2.66699 0 4 1 4 3c0 1.33301 -0.5 2.5 -1.5 3.5s-1.5 1.83301 -1.5 2.5c0 3.33301 2.33301 5 7 5c6.66699 0 10 -4 10 -12c0 -2.66699 -0.666992 -4.66699 -2 -6c-10.667 1.33301 -16 -0.666992 -16 -6
c0 -4 2.66699 -6 8 -6c4 0 7.66699 1.66699 11 5c4 -2.66699 6 -7.66699 6 -15c0 -9.33301 -4 -14 -12 -14s-12 3 -12 9c0 2 1 3 3 3l1 -1c1.33301 -0.666992 2.66602 -1 3.99902 -1c2.66699 0 4 1.66699 4 5s-2.33301 5 -7 5c-6 0 -9 -3.33301 -9 -10
c0 -8.66699 5.33301 -13 16 -13c16.667 0 25 6.33301 25 19zM820.002 522.003c-5.33301 -0.666992 -8.66699 2 -10 8l-7 35c-0.666992 2.66699 -0.333984 4.66699 0.999023 6s2.66602 2 3.99902 2h2l-1 3h-28l1 -3c4.66699 0.666992 7.66699 -2 9 -8l3 -15h-24l-3 15
c-0.666992 2.66699 -0.333984 4.66699 0.999023 6s2.66602 2 3.99902 2h2l-1 3h-29l1 -3c5.33301 0.666992 8.66602 -2 9.99902 -8l7 -35c0.666992 -2.66699 0.333984 -4.66699 -0.999023 -6s-2.66602 -2 -3.99902 -2h-2l1 -3h29l-1 3
c-5.33301 -0.666992 -8.66602 2 -9.99902 8l-3 16h24l3 -16c0.666992 -2.66699 0.333984 -4.66699 -0.999023 -6s-2.66602 -2 -3.99902 -2h-2l1 -3h29zM498.001 519.003l-1 3.00098c-5.33301 -0.666992 -8.66602 2 -9.99902 8l-7 35
c-0.666992 2.66699 -0.333984 4.66699 0.999023 6s2.66602 2 3.99902 2h2l-1 3h-45v-17h4c-0.666992 8.66699 3.66602 13 12.999 13h4c3.33301 0 5.33301 -2 6 -6l3 -16h-4c-2.66699 0 -5 0.666992 -7 2s-3.33301 2.66602 -4 3.99902l-1 3h-3l5 -23h3
c-0.666992 7.33301 2 11 8 11h4l3 -17c0.666992 -2.66699 0.333984 -4.66699 -0.999023 -6s-2.66602 -2 -3.99902 -2h-2l1 -3h29zM202.001 522.004c-5.33301 -0.666992 -8.66797 2 -10.001 8l-7 35c-0.666992 2.66699 -0.333984 4.66699 0.999023 6s2.66602 2 3.99902 2h2
l-1 3h-27c-13.333 0 -20 -5 -20 -15c0 -8.66699 6.33301 -13.667 19 -15l-9 -16c-1.33301 -2.66699 -3.16602 -4.66699 -5.49902 -6s-4.5 -2 -6.5 -2h-2l1 -3h19l12 23c1.33301 2 3 3 5 3l3 -15c0.666992 -2.66699 0.333984 -4.66699 -0.999023 -6s-2.66602 -2 -3.99902 -2
h-2l1 -3h29zM399.999 521.004c0 5.33301 -4.33008 8.33398 -12.9971 9.00098c-2.66699 1.33301 -4.33398 6.16602 -5.00098 14.499s-2.5 16 -5.5 23s-9.16699 10.5 -18.5 10.5c-3.33301 0 -6.33301 -1.16699 -9 -3.5s-4 -4.5 -4 -6.5c0 -3.33301 1.66699 -5 5 -5
c2.66699 0 4 2 4 6s1.66699 6 5 6s5.66602 -2.66699 6.99902 -8s2.83301 -11.833 4.5 -19.5s4.83398 -13.5 9.50098 -17.5c-5.33301 0 -10 -2.16699 -14 -6.5s-7 -6.5 -9 -6.5c-3.33301 0 -5 1.33301 -5 4c0 1.33301 0.333008 2.33301 1 3s1 1.33398 1 2.00098
c0 3.33301 -1.66699 5 -5 5s-5 -2.33301 -5 -7c0 -2.66699 1.66699 -5.33398 5 -8.00098s6.66602 -4 9.99902 -4c6.66699 0 11.667 2.16699 15 6.5s6.66602 6.5 9.99902 6.5c2.66699 -4.66699 6.66699 -7 12 -7c2.66699 0 4 1 4 3zM827.002 475.005v6h-685v-6h685z
M827.002 378.005v62h-147v-62h36v28h11v-65h-14v-33h81v33h-14v65h11v-28h36zM648.002 406.005v34h-81v-34h11l-15 -23l-15 23h10v34h-62v-34h12l37 -46v-19h-14v-33h81v33h-15v20l37 45h14zM458.002 308.005v33h-14v65h14v34h-96c-14 0 -25.333 -3.83301 -34 -11.5
s-13 -17.167 -13 -28.5c0 -12 4.33301 -21.667 13 -29s20 -11 34 -11h30v-19h-15v-33h81zM283.002 308.005v33h-14v65h14v34h-141v-62h41v28h33v-20h-24v-24h24v-21h-33v28h-41v-61h141zM827.002 271.005v6h-685v-6h685zM728.002 192.005c0 10 -3.83301 18.833 -11.5 26.5
s-16.167 11.5 -25.5 11.5c-5.33301 0 -10.5 -1.83301 -15.5 -5.5s-7.5 -9.16699 -7.5 -16.5c0 -10.667 3.66699 -19.667 11 -27s16 -11 26 -11c5.33301 0 10.5 1.83301 15.5 5.5s7.5 9.16699 7.5 16.5zM203.002 217.005c-4.66699 8.66699 -10.667 13 -18 13
c-10 0 -14.667 -7.66699 -14 -23c-4.66699 15.333 -11.667 23 -21 23c-8 0 -12 -4 -12 -12l3 -1c0 4 2.66699 6 8 6c10.667 0 18.667 -11 24 -33c1.33301 -5.33301 1.5 -9.16602 0.5 -11.499s-2.16699 -3.5 -3.5 -3.5h-3l1 -4h28l-1 4c-4.66699 -1.33301 -8 1.66699 -10 9
c-3.33301 11.333 -5 19.666 -5 24.999c0 8.66699 3 13 9 13c3.33301 0 7.33301 -2.33301 12 -7zM823.002 171.005l-1 3.00098c-5.33301 -0.666992 -8.66602 2 -9.99902 8l-7 35c-0.666992 2.66699 -0.333984 4.66699 0.999023 6s2.66602 2 3.99902 2h2l-1 3h-45v-17h4
c-0.666992 8.66699 3.66602 13 12.999 13h4c3.33301 0 5.33301 -2 6 -6l3 -16h-4c-2.66699 0 -5 0.666992 -7 2s-3.33301 2.66602 -4 3.99902l-1 3h-3l5 -23h3c-0.666992 7.33301 2 11 8 11h4l3 -17c0.666992 -2.66699 0.333984 -4.66699 -0.999023 -6
s-2.66602 -2 -3.99902 -2h-2l1 -3h29zM621.002 225.006l-0.993164 3.00195h-29l1 -3c5.33301 0.666992 8.66602 -2.33301 9.99902 -9l5 -21c3.33301 -13.333 -0.333984 -20 -11.001 -20c-9.33301 0 -16 7.33301 -20 22l-4 19
c-0.666992 3.33301 -0.333984 5.66602 0.999023 6.99902s2.66602 2 3.99902 2h2v3h-24l1 -3c6 0.666992 9.66699 -2.33301 11 -9l4 -19c3.33301 -18 12.666 -27 27.999 -27c16 0 22.333 8 19 24l-5 22c-0.666992 3.33301 -0.333984 5.66602 0.999023 6.99902
s2.66602 2 3.99902 2h3zM522.009 174.008c-4 0 -6.99707 3.33203 -8.99707 9.99902l-7 32c-0.666992 2.66699 -0.333984 4.83398 0.999023 6.50098s3 2.5 5 2.5h2l-1 3h-14l-29 -42l-5 30c-0.666992 2.66699 -0.333984 4.66699 0.999023 6s2.66602 2 3.99902 2l2 1l-1 3h-21
l1 -3c4.66699 0 7.66699 -3 9 -9l8 -45l3 -1l30 44l6 -30c0.666992 -3.33301 0.5 -5.83301 -0.5 -7.5s-2.16699 -2.5 -3.5 -2.5h-2l1 -3h21zM414.012 171.007l-1 4c-4.66699 -1.33301 -8 1.66699 -10 9l-8 31c-2 6 0.666992 9.33301 8 10l-1 3h-30
c-16.667 0 -25 -7.33301 -25 -22c0 -10 3.66699 -18.333 11 -25s15.333 -10 24 -10h32zM306.012 174.007c-5.33301 -0.666992 -8.66797 2 -10.001 8l-7 35c-0.666992 2.66699 -0.333984 4.66699 0.999023 6s2.66602 2 3.99902 2h2l-1 3h-27c-13.333 0 -20 -5 -20 -15
c0 -8.66699 6.33301 -13.667 19 -15l-9 -16c-1.33301 -2.66699 -3.16602 -4.66699 -5.49902 -6s-4.5 -2 -6.5 -2h-2l1 -3h19l12 23c1.33301 2 3 3 5 3l3 -15c0.666992 -2.66699 0.333984 -4.66699 -0.999023 -6s-2.66602 -2 -3.99902 -2h-2l1 -3h29zM827.01 127.007v6h-685
v-6h685zM694.01 46.0068l0.000976562 2c-4 0.666992 -6 2.33398 -6 5.00098v20l6 6v2h-10l-24 -26v18c0 1.33301 0.5 2.5 1.5 3.5s1.83301 1.5 2.5 1.5l2 1v2h-15v-2c4 -0.666992 6 -2.66699 6 -6v-28h3l25 28v-20c-0.666992 -2.66699 -2.33398 -4.33398 -5.00098 -5.00098
v-2h14zM633.011 48.0068l-4 2c-0.666992 0.666992 -1 1.66699 -1 3v21c0.666992 3.33301 2.33398 5 5.00098 5v2h-29l-2 -10l2 -1c2 5.33301 5 8 9 8h4c2.66699 0 4 -1 4 -3v-10h-4c-3.33301 0 -5.33301 1.66699 -6 5h-2v-13h2c0 4 2 6 6 6h4v-11c0 -2 -1.33301 -3 -4 -3h-4
c-2 0 -3.83301 0.833008 -5.5 2.5s-2.83398 3.16699 -3.50098 4.5l-1 2l-2 -1l2 -11h30v2zM583.011 81.0068h-15.001v-2l2 -2c0.666992 -0.666992 0.666992 -1.66699 0 -3l-9 -19l-5 10l4 8l6 6v2h-26l1 -2c2 0 4.33301 -2 7 -6l3 -5l-7 -13l-8 18
c-1.33301 3.33301 -0.666016 5.33301 2.00098 6v2h-13v-2c2.66699 -0.666992 4.66699 -2.66699 6 -6l13 -27h1c0.666992 -0.666992 1 -0.666992 1 0l8 16l9 -16h1l12 27c0.666992 2 1.66699 3.5 3 4.5s2.33301 1.5 3 1.5h1v2zM480.01 79.0068l-0.000976562 1.99902h-15v-2
l2 -1c0.666992 -0.666992 0.333984 -2 -0.999023 -4l-6 -9l-6 9c-1.33301 2.66699 -0.333008 4.33398 3 5.00098v2h-15v-2c3.33301 0 6 -1.66699 8 -5l8 -12v-8c0 -3.33301 -1.66699 -5.33301 -5 -6v-2h17v2c-3.33301 0 -5 2 -5 6v8l8 12zM425.009 64.0059
c0 12 -6.66699 18 -20 18s-20 -6 -20 -18c0 -12.667 6.66699 -19 20 -19s20 6.33301 20 19zM364.009 46.0059l0.000976562 2.00098c-3.33301 0 -5 1.66699 -5 5v20c0 3.33301 1.66699 5.33301 5 6v2h-18c-8.66699 0 -13 -3 -13 -9c0 -3.33301 3 -6.33301 9 -9l-7 -10l-8 -5
v-2h11l7 12c2 2.66699 4.33301 4 7 4v-9c-0.666992 -2.66699 -2.33398 -4.33398 -5.00098 -5.00098v-2h17zM309.01 46.0068l0.000976562 2c-4 0.666992 -6 2.66699 -6 6v20c0 3.33301 2 5 6 5v2h-18v-2c4 0 6 -1.66699 6 -5v-9c-1.33301 0 -2.66602 0.666992 -3.99902 2
l-8 8c-1.33301 2 -1 3.33301 1 4v2h-14v-2c3.33301 -0.666992 6 -2 8 -4l10 -9l-13 -13l-7 -5v-2h17v2l-3 1c-0.666992 0.666992 -0.333984 2 0.999023 4l8 8c1.33301 1.33301 2.66602 2 3.99902 2v-9c0 -2 -0.5 -3.5 -1.5 -4.5s-2.16699 -1.5 -3.5 -1.5h-1v-2h18z
M606.011 -82.9932c0 5.33301 -3.66699 7.66699 -11 7v-13c7.33301 0 11 2 11 6zM525.011 -81.9922c0 5.33301 -3.66699 7.33301 -11 6v-12c7.33301 -0.666992 11 1.33301 11 6zM394.011 -82.9922c0 5.33301 -3.66699 7.66699 -11 7v-13c7.33301 0 11 2 11 6z
M564.011 -91.9912l-5 12l-5 -12h10zM800.011 -87.9912c0 8.66699 -3.66699 13 -11 13s-11 -4 -11 -12c0 -8.66699 3.66699 -13 11 -13s11 4 11 12zM441.011 -87.9912c0 8.66699 -3.66699 13 -11 13s-11 -4 -11 -12c0 -8.66699 3.66699 -13 11 -13s11 4 11 12z
M176.011 548.009h-5c-10 0 -15 5 -15 15c0 6 2.66699 9 8 9s8.33301 -1.66699 9 -5zM566.011 553.009c-2 -2.66699 -4.33203 -4 -6.99902 -4s-4 0.666992 -4 2c0 2 1.33301 3 4 3c3.33301 0 5.66602 -0.333008 6.99902 -1zM272.012 553.009
c-2 -2.66699 -4.33203 -4 -6.99902 -4s-4 0.666992 -4 2c0 2 1.33301 3 4 3c3.33301 0 5.66602 -0.333008 6.99902 -1zM684.013 535.009c0 -8.66699 -3.66699 -13 -11 -13c-6 0 -11.667 3.83301 -17 11.5s-8 16.5 -8 26.5c0 9.33301 3.66699 14 11 14c6 0 11.667 -4 17 -12
s8 -17 8 -27zM392.013 384.009h-11c-8.66699 0 -13 3.66699 -13 11s4.33301 11 13 11h11v-22zM280.013 200.009h-5c-10 0 -15 5 -15 15c0 6 2.66699 9 8 9s8.33301 -1.66699 9 -5zM716.013 187.009c0 -8.66699 -3.66699 -13 -11 -13c-6 0 -11.667 3.83301 -17 11.5
s-8 16.5 -8 26.5c0 9.33301 3.66699 14 11 14c6 0 11.667 -4 17 -12s8 -17 8 -27zM393.013 182.009c0 -4.66699 -1.33301 -7 -4 -7h-5c-7.33301 0 -13.5 3.33301 -18.5 10s-7.5 14 -7.5 22c0 11.333 4.66699 17 14 17h6c2.66699 -0.666992 4.66699 -3 6 -7zM553.013 79.0088
c3.33301 0 3.33301 -3 0 -9c-3.33301 6 -3.33301 9 0 9zM352.013 64.0088h-3c-5.33301 0 -8 2.66699 -8 8c0 4 2.33301 6 7 6c2.66699 0 4 -1.33301 4 -4v-10zM417.013 64.0088c0 -11.333 -4 -17 -12 -17s-12 5.66699 -12 17c0 10.667 4 16 12 16s12 -5.33301 12 -16z" />
    <glyph glyph-name="ntilde" unicode="&#xf1;" horiz-adv-x="850" 
d="M424 -12c-106.667 0 -195.167 34.833 -265.5 104.5s-105.5 154.834 -105.5 255.501v2c0 100.667 35.5 186.167 106.5 256.5s159.833 105.5 266.5 105.5s195.167 -34.833 265.5 -104.5s105.5 -154.834 105.5 -255.501v-2c0 -100.667 -35.5 -186.167 -106.5 -256.5
s-159.833 -105.5 -266.5 -105.5zM426 130c61.333 0 111.666 21 150.999 63s59 93.667 59 155v2c0 61.333 -20 113.333 -60 156s-90.667 64 -152 64s-111.666 -21 -150.999 -63s-59 -93.667 -59 -155v-2c0 -61.333 20 -113.333 60 -156s90.667 -64 152 -64zM363 755l-128 120
l131 57l113 -177h-116z" />
    <glyph glyph-name="ograve" unicode="&#xf2;" horiz-adv-x="756" 
d="M376 -11c-95.333 0 -169.667 26.499 -223 79.499s-80 130.167 -80 231.5v400h154v-396c0 -56 13.167 -98.833 39.5 -128.5s63.5 -44.5 111.5 -44.5s85.167 14.333 111.5 43s39.5 70.334 39.5 125.001v401h154v-395c0 -104 -27.167 -182.667 -81.5 -236
s-129.5 -80 -225.5 -80zM308.999 749.999l113 177l131 -57l-128 -120h-116z" />
    <glyph glyph-name="oacute" unicode="&#xf3;" horiz-adv-x="756" 
d="M376 -11c-95.333 0 -169.667 26.499 -223 79.499s-80 130.167 -80 231.5v400h154v-396c0 -56 13.167 -98.833 39.5 -128.5s63.5 -44.5 111.5 -44.5s85.167 14.333 111.5 43s39.5 70.334 39.5 125.001v401h154v-395c0 -104 -27.167 -182.667 -81.5 -236
s-129.5 -80 -225.5 -80zM182.999 754.999l123 157h144l123 -157h-117l-79 66l-79 -66h-115z" />
    <glyph glyph-name="ocircumflex" unicode="&#xf4;" horiz-adv-x="756" 
d="M376 -11c-95.333 0 -169.667 26.499 -223 79.499s-80 130.167 -80 231.5v400h154v-396c0 -56 13.167 -98.833 39.5 -128.5s63.5 -44.5 111.5 -44.5s85.167 14.333 111.5 43s39.5 70.334 39.5 125.001v401h154v-395c0 -104 -27.167 -182.667 -81.5 -236
s-129.5 -80 -225.5 -80zM330.999 749.999l-128 120l131 57l113 -177h-116z" />
    <glyph glyph-name="otilde" unicode="&#xf5;" horiz-adv-x="302" 
d="M75 0v536h152v-536h-152z" />
    <glyph glyph-name="odieresis" unicode="&#xf6;" 
d="M55 595l123 157h144l123 -157h-117l-79 66l-79 -66h-115z" />
    <glyph glyph-name="divide" unicode="&#xf7;" 
d="M125 585l-81 25c12.667 46 28.334 80.5 47.001 103.5s44.334 34.5 77.001 34.5c22.667 0 50.834 -6.5 84.501 -19.5s55.5 -19.5 65.5 -19.5c14.667 0 25.834 3.83301 33.501 11.5s15.5 20.167 23.5 37.5l81 -25c-12.667 -46 -28.334 -80.5 -47.001 -103.5
s-44.334 -34.5 -77.001 -34.5c-22.667 0 -50.834 6.5 -84.501 19.5s-55.5 19.5 -65.5 19.5c-14.667 0 -25.834 -3.83301 -33.501 -11.5s-15.5 -20.167 -23.5 -37.5z" />
    <glyph glyph-name="oslash" unicode="&#xf8;" 
d="M70 600v105h360v-105h-360z" />
    <glyph glyph-name="ugrave" unicode="&#xf9;" 
d="M250 593c-53.333 0 -96.8311 14 -130.498 42s-52.834 67 -57.501 117h102c13.333 -40 42 -60 86 -60s72.667 20 86 60h102c-4.66699 -50 -23.834 -89 -57.501 -117s-77.167 -42 -130.5 -42z" />
    <glyph glyph-name="uacute" unicode="&#xfa;" 
d="M175 595v135h150v-135h-150z" />
    <glyph glyph-name="ucircumflex" unicode="&#xfb;" 
d="M250 593c-32 0 -60.167 11.5 -84.5 34.5s-36.5 50.167 -36.5 81.5v2c0 31.333 12.167 58.5 36.5 81.5s52.5 34.5 84.5 34.5s60.167 -11.5 84.5 -34.5s36.5 -50.167 36.5 -81.5v-2c0 -31.333 -12.167 -58.5 -36.5 -81.5s-52.5 -34.5 -84.5 -34.5zM250 648
c16.667 0 31.167 6 43.5 18s18.5 26.333 18.5 43v2c0 16.667 -6.16699 31 -18.5 43s-26.833 18 -43.5 18s-31.167 -6 -43.5 -18s-18.5 -26.333 -18.5 -43v-2c0 -16.667 6.16699 -31 18.5 -43s26.833 -18 43.5 -18z" />
    <glyph glyph-name="udieresis" unicode="&#xfc;" 
d="M245 -173l-127 53l89 130h112z" />
    <glyph glyph-name="yacute" unicode="&#xfd;" 
d="M231 595l113 177l128 -57l-130 -120h-111zM36 595l111 177l128 -57l-128 -120h-111z" />
    <glyph glyph-name="thorn" unicode="&#xfe;" 
d="M371 -164c-63.333 -5.33301 -112.5 1.49902 -147.5 20.499s-52.5 48.5 -52.5 88.5c0 20.667 5.33301 42.334 16 65.001h104c-4 -14 -6 -27 -6 -39c0 -42 28.667 -64.667 86 -68v-67z" />
    <glyph glyph-name="ydieresis" unicode="&#xff;" 
d="M178 595l-123 157h117l79 -66l79 66h115l-123 -157h-144z" />
    <glyph glyph-name="OE" unicode="&#x152;" horiz-adv-x="592" 
d="M220 -10c-52.667 0 -96.5 14.499 -131.5 43.499s-52.5 69.167 -52.5 120.5v2c0 56.667 19.5 99.334 58.5 128.001s91.5 43 157.5 43c44.667 0 88.334 -7.33301 131.001 -22v9c0 65.333 -38.333 98 -115 98c-46 0 -95.333 -9.66699 -148 -29l-38 116
c65.333 28.667 134.666 43 207.999 43c80.667 0 141 -20 181 -60c38.667 -38.667 58 -95.667 58 -171v-311h-147v58c-40.667 -45.333 -94.667 -68 -162 -68zM266 94.999c35.333 0 64.001 8.83301 86.001 26.5s33 40.167 33 67.5v27c-28.667 13.333 -61 20 -97 20
c-32.667 0 -58.334 -6.33301 -77.001 -19s-28 -31 -28 -55v-2c0 -20 7.66699 -35.833 23 -47.5s35.333 -17.5 60 -17.5zM294.001 592.999c-32 0 -60.167 11.5 -84.5 34.5s-36.5 50.167 -36.5 81.5v2c0 31.333 12.167 58.5 36.5 81.5s52.5 34.5 84.5 34.5
s60.167 -11.5 84.5 -34.5s36.5 -50.167 36.5 -81.5v-2c0 -31.333 -12.167 -58.5 -36.5 -81.5s-52.5 -34.5 -84.5 -34.5zM294.001 647.999c16.667 0 31.167 6 43.5 18s18.5 26.333 18.5 43v2c0 16.667 -6.16699 31 -18.5 43s-26.833 18 -43.5 18s-31.167 -6 -43.5 -18
s-18.5 -26.333 -18.5 -43v-2c0 -16.667 6.16699 -31 18.5 -43s26.833 -18 43.5 -18z" />
    <glyph glyph-name="oe" unicode="&#x153;" horiz-adv-x="623" 
d="M246 -10c-57.333 0 -102 17.667 -134 53s-48 84 -48 146v347h152v-299c0 -35.333 8 -62.333 24 -81s38.667 -28 68 -28s52.5 9.33301 69.5 28s25.5 45.667 25.5 81v299h152v-536h-152v76c-44.667 -57.333 -97 -86 -157 -86zM237 595l113 177l131 -57l-128 -120h-116z" />
    <glyph glyph-name="Scaron" unicode="&#x160;" horiz-adv-x="592" 
d="M220 -10c-52.667 0 -96.5 14.499 -131.5 43.499s-52.5 69.167 -52.5 120.5v2c0 56.667 19.5 99.334 58.5 128.001s91.5 43 157.5 43c44.667 0 88.334 -7.33301 131.001 -22v9c0 65.333 -38.333 98 -115 98c-46 0 -95.333 -9.66699 -148 -29l-38 116
c65.333 28.667 134.666 43 207.999 43c80.667 0 141 -20 181 -60c38.667 -38.667 58 -95.667 58 -171v-311h-147v58c-40.667 -45.333 -94.667 -68 -162 -68zM266 94.999c35.333 0 64.001 8.83301 86.001 26.5s33 40.167 33 67.5v27c-28.667 13.333 -61 20 -97 20
c-32.667 0 -58.334 -6.33301 -77.001 -19s-28 -31 -28 -55v-2c0 -20 7.66699 -35.833 23 -47.5s35.333 -17.5 60 -17.5zM328.001 594.999v135h146v-135h-146zM114.001 594.999v135h146v-135h-146z" />
    <glyph glyph-name="scaron" unicode="&#x161;" horiz-adv-x="664" 
d="M331 -12c-82.667 0 -151.5 26.833 -206.5 80.5s-82.5 119.167 -82.5 196.5v2c0 78 27.833 144 83.5 198s124.834 81 207.501 81s151.5 -26.833 206.5 -80.5s82.5 -119.167 82.5 -196.5v-2c0 -78 -27.833 -144 -83.5 -198s-124.834 -81 -207.501 -81zM333 119
c42 0 75.667 14 101 42s38 62.667 38 104v2c0 40.667 -13.167 75.5 -39.5 104.5s-60.166 43.5 -101.499 43.5c-42 0 -75.667 -14 -101 -42s-38 -62.667 -38 -104v-2c0 -40.667 13.167 -75.5 39.5 -104.5s60.166 -43.5 101.499 -43.5zM366 595v135h146v-135h-146zM152 595
v135h146v-135h-146z" />
    <glyph glyph-name="Ydieresis" unicode="&#x178;" horiz-adv-x="623" 
d="M246 -10c-57.333 0 -102 17.667 -134 53s-48 84 -48 146v347h152v-299c0 -35.333 8 -62.333 24 -81s38.667 -28 68 -28s52.5 9.33301 69.5 28s25.5 45.667 25.5 81v299h152v-536h-152v76c-44.667 -57.333 -97 -86 -157 -86zM345 595v135h146v-135h-146zM131 595v135h146
v-135h-146z" />
    <glyph glyph-name="Zcaron" unicode="&#x17d;" horiz-adv-x="613" 
d="M322 -12c-81.333 0 -148.334 25.833 -201.001 77.5s-79 118.167 -79 199.5v2c0 78 25 144 75 198s113.333 81 190 81c84.667 0 149.334 -28 194.001 -84s67 -125 67 -207c0 -8 -0.666992 -21.333 -2 -40h-373c7.33301 -34 22.333 -60 45 -78s51.334 -27 86.001 -27
c47.333 0 90.666 18.333 129.999 55l87 -77c-54 -66.667 -127 -100 -219 -100zM190.999 310l229.001 -0.00195312c-4.66699 34.667 -16.834 62.334 -36.501 83.001s-45.167 31 -76.5 31c-30.667 0 -56.167 -10.167 -76.5 -30.5s-33.5 -48.166 -39.5 -83.499zM246 594.998
l113 177l131 -57l-128 -120h-116z" />
    <glyph glyph-name="zcaron" unicode="&#x17e;" horiz-adv-x="623" 
d="M246 -10c-57.333 0 -102 17.667 -134 53s-48 84 -48 146v347h152v-299c0 -35.333 8 -62.333 24 -81s38.667 -28 68 -28s52.5 9.33301 69.5 28s25.5 45.667 25.5 81v299h152v-536h-152v76c-44.667 -57.333 -97 -86 -157 -86zM116 595l123 157h144l123 -157h-117l-79 66
l-79 -66h-115z" />
    <glyph glyph-name="florin" unicode="&#x192;" horiz-adv-x="670" 
d="M84 0v700h528v-137h-375v-142h330v-137h-330v-147h380v-137h-533zM264 755l113 177l131 -57l-128 -120h-116z" />
    <glyph glyph-name="circumflex" unicode="&#x2c6;" horiz-adv-x="592" 
d="M220 -10c-52.667 0 -96.5 14.499 -131.5 43.499s-52.5 69.167 -52.5 120.5v2c0 56.667 19.5 99.334 58.5 128.001s91.5 43 157.5 43c44.667 0 88.334 -7.33301 131.001 -22v9c0 65.333 -38.333 98 -115 98c-46 0 -95.333 -9.66699 -148 -29l-38 116
c65.333 28.667 134.666 43 207.999 43c80.667 0 141 -20 181 -60c38.667 -38.667 58 -95.667 58 -171v-311h-147v58c-40.667 -45.333 -94.667 -68 -162 -68zM266 94.999c35.333 0 64.001 8.83301 86.001 26.5s33 40.167 33 67.5v27c-28.667 13.333 -61 20 -97 20
c-32.667 0 -58.334 -6.33301 -77.001 -19s-28 -31 -28 -55v-2c0 -20 7.66699 -35.833 23 -47.5s35.333 -17.5 60 -17.5zM254.001 594.999l-128 120l131 57l113 -177h-116z" />
    <glyph glyph-name="tilde" unicode="&#x2dc;" horiz-adv-x="664" 
d="M331 -12c-82.667 0 -151.5 26.833 -206.5 80.5s-82.5 119.167 -82.5 196.5v2c0 78 27.833 144 83.5 198s124.834 81 207.501 81s151.5 -26.833 206.5 -80.5s82.5 -119.167 82.5 -196.5v-2c0 -78 -27.833 -144 -83.5 -198s-124.834 -81 -207.501 -81zM333 119
c42 0 75.667 14 101 42s38 62.667 38 104v2c0 40.667 -13.167 75.5 -39.5 104.5s-60.166 43.5 -101.499 43.5c-42 0 -75.667 -14 -101 -42s-38 -62.667 -38 -104v-2c0 -40.667 13.167 -75.5 39.5 -104.5s60.166 -43.5 101.499 -43.5zM274 595l-128 120l131 57l113 -177h-116
z" />
    <glyph glyph-name="endash" unicode="&#x2013;" horiz-adv-x="623" 
d="M68 0v536h152v-76c44.667 57.333 97 86 157 86c57.333 0 102 -17.667 134 -53s48 -84 48 -146v-347h-152v299c0 35.333 -8 62.333 -24 81s-38.667 28 -68 28s-52.5 -9.33301 -69.5 -28s-25.5 -45.667 -25.5 -81v-299h-152zM191 585l-81 25
c12.667 46 28.334 80.5 47.001 103.5s44.334 34.5 77.001 34.5c22.667 0 50.834 -6.5 84.501 -19.5s55.5 -19.5 65.5 -19.5c14.667 0 25.834 3.83301 33.501 11.5s15.5 20.167 23.5 37.5l81 -25c-12.667 -46 -28.334 -80.5 -47.001 -103.5s-44.334 -34.5 -77.001 -34.5
c-22.667 0 -50.834 6.5 -84.501 19.5s-55.5 19.5 -65.5 19.5c-14.667 0 -25.834 -3.83301 -33.501 -11.5s-15.5 -20.167 -23.5 -37.5z" />
    <glyph glyph-name="emdash" unicode="&#x2014;" horiz-adv-x="664" 
d="M331 -12c-82.667 0 -151.5 26.833 -206.5 80.5s-82.5 119.167 -82.5 196.5v2c0 78 27.833 144 83.5 198s124.834 81 207.501 81s151.5 -26.833 206.5 -80.5s82.5 -119.167 82.5 -196.5v-2c0 -78 -27.833 -144 -83.5 -198s-124.834 -81 -207.501 -81zM333 119
c42 0 75.667 14 101 42s38 62.667 38 104v2c0 40.667 -13.167 75.5 -39.5 104.5s-60.166 43.5 -101.499 43.5c-42 0 -75.667 -14 -101 -42s-38 -62.667 -38 -104v-2c0 -40.667 13.167 -75.5 39.5 -104.5s60.166 -43.5 101.499 -43.5zM274 595l113 177l131 -57l-128 -120
h-116z" />
    <glyph glyph-name="quoteleft" unicode="&#x2018;" horiz-adv-x="613" 
d="M322 -12c-81.333 0 -148.334 25.833 -201.001 77.5s-79 118.167 -79 199.5v2c0 78 25 144 75 198s113.333 81 190 81c84.667 0 149.334 -28 194.001 -84s67 -125 67 -207c0 -8 -0.666992 -21.333 -2 -40h-373c7.33301 -34 22.333 -60 45 -78s51.334 -27 86.001 -27
c47.333 0 90.666 18.333 129.999 55l87 -77c-54 -66.667 -127 -100 -219 -100zM190.999 310l229.001 -0.00195312c-4.66699 34.667 -16.834 62.334 -36.501 83.001s-45.167 31 -76.5 31c-30.667 0 -56.167 -10.167 -76.5 -30.5s-33.5 -48.166 -39.5 -83.499zM340 594.998
v135h146v-135h-146zM126 594.998v135h146v-135h-146z" />
    <glyph glyph-name="quoteright" unicode="&#x2019;" horiz-adv-x="302" 
d="M75 0v536h152v-536h-152zM85 595l113 177l131 -57l-128 -120h-116z" />
    <glyph glyph-name="quotesinglbase" unicode="&#x201a;" horiz-adv-x="738" 
d="M373 -173l-126.996 53.001l80 118c-80.667 18.667 -146.334 60.167 -197.001 124.5s-76 139.5 -76 225.5v2c0 101.333 34.333 187 103 257s156 105 262 105c62 0 114.667 -9.16699 158 -27.5s82.666 -45.166 117.999 -80.499l-98 -113c-58 52.667 -117.667 79 -179 79
c-58 0 -106.333 -21.167 -145 -63.5s-58 -93.833 -58 -154.5v-2c0 -61.333 19.167 -113.333 57.5 -156s86.833 -64 145.5 -64c37.333 0 69.666 6.66699 96.999 20s56.333 34 87 62l98 -99c-36 -38.667 -74.333 -68.334 -115 -89.001s-89.334 -32.334 -146.001 -35.001z" />
    <glyph glyph-name="quotedblleft" unicode="&#x201c;" horiz-adv-x="302" 
d="M75 0v536h152v-536h-152zM101 595l-128 120l131 57l113 -177h-116z" />
    <glyph glyph-name="quotedblright" unicode="&#x201d;" horiz-adv-x="302" 
d="M75 0v536h152v-536h-152zM-44 595l123 157h144l123 -157h-117l-79 66l-79 -66h-115z" />
    <glyph glyph-name="quotedblbase" unicode="&#x201e;" horiz-adv-x="790" 
d="M84 0v700h142l328 -431v431h152v-700h-131l-339 445v-445h-152zM270 745l-81 25c12.667 46 28.334 80.5 47.001 103.5s44.334 34.5 77.001 34.5c22.667 0 50.834 -6.5 84.501 -19.5s55.5 -19.5 65.5 -19.5c14.667 0 25.834 3.83301 33.501 11.5s15.5 20.167 23.5 37.5
l81 -25c-12.667 -46 -28.334 -80.5 -47.001 -103.5s-44.334 -34.5 -77.001 -34.5c-22.667 0 -50.834 6.5 -84.501 19.5s-55.5 19.5 -65.5 19.5c-14.667 0 -25.834 -3.83301 -33.501 -11.5s-15.5 -20.167 -23.5 -37.5z" />
    <glyph glyph-name="dagger" unicode="&#x2020;" horiz-adv-x="756" 
d="M376 -11c-95.333 0 -169.667 26.499 -223 79.499s-80 130.167 -80 231.5v400h154v-396c0 -56 13.167 -98.833 39.5 -128.5s63.5 -44.5 111.5 -44.5s85.167 14.333 111.5 43s39.5 70.334 39.5 125.001v401h154v-395c0 -104 -27.167 -182.667 -81.5 -236
s-129.5 -80 -225.5 -80zM411.999 754.999v135h146v-135h-146zM197.999 754.999v135h146v-135h-146z" />
    <glyph glyph-name="daggerdbl" unicode="&#x2021;" horiz-adv-x="592" 
d="M220 -10c-52.667 0 -96.5 14.499 -131.5 43.499s-52.5 69.167 -52.5 120.5v2c0 56.667 19.5 99.334 58.5 128.001s91.5 43 157.5 43c44.667 0 88.334 -7.33301 131.001 -22v9c0 65.333 -38.333 98 -115 98c-46 0 -95.333 -9.66699 -148 -29l-38 116
c65.333 28.667 134.666 43 207.999 43c80.667 0 141 -20 181 -60c38.667 -38.667 58 -95.667 58 -171v-311h-147v58c-40.667 -45.333 -94.667 -68 -162 -68zM266 94.999c35.333 0 64.001 8.83301 86.001 26.5s33 40.167 33 67.5v27c-28.667 13.333 -61 20 -97 20
c-32.667 0 -58.334 -6.33301 -77.001 -19s-28 -31 -28 -55v-2c0 -20 7.66699 -35.833 23 -47.5s35.333 -17.5 60 -17.5zM227.001 594.999l113 177l131 -57l-128 -120h-116z" />
    <glyph glyph-name="bullet" unicode="&#x2022;" horiz-adv-x="302" 
d="M75 0v536h152v-536h-152zM185 595v135h146v-135h-146zM-29 595v135h146v-135h-146z" />
    <glyph glyph-name="ellipsis" unicode="&#x2026;" horiz-adv-x="850" 
d="M424 -12c-106.667 0 -195.167 34.833 -265.5 104.5s-105.5 154.834 -105.5 255.501v2c0 100.667 35.5 186.167 106.5 256.5s159.833 105.5 266.5 105.5s195.167 -34.833 265.5 -104.5s105.5 -154.834 105.5 -255.501v-2c0 -100.667 -35.5 -186.167 -106.5 -256.5
s-159.833 -105.5 -266.5 -105.5zM426 130c61.333 0 111.666 21 150.999 63s59 93.667 59 155v2c0 61.333 -20 113.333 -60 156s-90.667 64 -152 64s-111.666 -21 -150.999 -63s-59 -93.667 -59 -155v-2c0 -61.333 20 -113.333 60 -156s90.667 -64 152 -64zM459 755v135h146
v-135h-146zM245 755v135h146v-135h-146z" />
    <glyph glyph-name="perthousand" unicode="&#x2030;" horiz-adv-x="592" 
d="M220 -10c-52.667 0 -96.5 14.499 -131.5 43.499s-52.5 69.167 -52.5 120.5v2c0 56.667 19.5 99.334 58.5 128.001s91.5 43 157.5 43c44.667 0 88.334 -7.33301 131.001 -22v9c0 65.333 -38.333 98 -115 98c-46 0 -95.333 -9.66699 -148 -29l-38 116
c65.333 28.667 134.666 43 207.999 43c80.667 0 141 -20 181 -60c38.667 -38.667 58 -95.667 58 -171v-311h-147v58c-40.667 -45.333 -94.667 -68 -162 -68zM266 94.999c35.333 0 64.001 8.83301 86.001 26.5s33 40.167 33 67.5v27c-28.667 13.333 -61 20 -97 20
c-32.667 0 -58.334 -6.33301 -77.001 -19s-28 -31 -28 -55v-2c0 -20 7.66699 -35.833 23 -47.5s35.333 -17.5 60 -17.5zM99.001 594.999l123 157h144l123 -157h-117l-79 66l-79 -66h-115z" />
    <glyph glyph-name="guilsinglleft" unicode="&#x2039;" horiz-adv-x="592" 
d="M220 -10c-52.667 0 -96.5 14.499 -131.5 43.499s-52.5 69.167 -52.5 120.5v2c0 56.667 19.5 99.334 58.5 128.001s91.5 43 157.5 43c44.667 0 88.334 -7.33301 131.001 -22v9c0 65.333 -38.333 98 -115 98c-46 0 -95.333 -9.66699 -148 -29l-38 116
c65.333 28.667 134.666 43 207.999 43c80.667 0 141 -20 181 -60c38.667 -38.667 58 -95.667 58 -171v-311h-147v58c-40.667 -45.333 -94.667 -68 -162 -68zM266 94.999c35.333 0 64.001 8.83301 86.001 26.5s33 40.167 33 67.5v27c-28.667 13.333 -61 20 -97 20
c-32.667 0 -58.334 -6.33301 -77.001 -19s-28 -31 -28 -55v-2c0 -20 7.66699 -35.833 23 -47.5s35.333 -17.5 60 -17.5zM171.001 584.999l-81 25c12.667 46 28.334 80.5 47.001 103.5s44.334 34.5 77.001 34.5c22.667 0 50.834 -6.5 84.501 -19.5s55.5 -19.5 65.5 -19.5
c14.667 0 25.834 3.83301 33.501 11.5s15.5 20.167 23.5 37.5l81 -25c-12.667 -46 -28.334 -80.5 -47.001 -103.5s-44.334 -34.5 -77.001 -34.5c-22.667 0 -50.834 6.5 -84.501 19.5s-55.5 19.5 -65.5 19.5c-14.667 0 -25.834 -3.83301 -33.501 -11.5
s-15.5 -20.167 -23.5 -37.5z" />
    <glyph glyph-name="guilsinglright" unicode="&#x203a;" horiz-adv-x="664" 
d="M331 -12c-82.667 0 -151.5 26.833 -206.5 80.5s-82.5 119.167 -82.5 196.5v2c0 78 27.833 144 83.5 198s124.834 81 207.501 81s151.5 -26.833 206.5 -80.5s82.5 -119.167 82.5 -196.5v-2c0 -78 -27.833 -144 -83.5 -198s-124.834 -81 -207.501 -81zM333 119
c42 0 75.667 14 101 42s38 62.667 38 104v2c0 40.667 -13.167 75.5 -39.5 104.5s-60.166 43.5 -101.499 43.5c-42 0 -75.667 -14 -101 -42s-38 -62.667 -38 -104v-2c0 -40.667 13.167 -75.5 39.5 -104.5s60.166 -43.5 101.499 -43.5zM207 585l-81 25
c12.667 46 28.334 80.5 47.001 103.5s44.334 34.5 77.001 34.5c22.667 0 50.834 -6.5 84.501 -19.5s55.5 -19.5 65.5 -19.5c14.667 0 25.834 3.83301 33.501 11.5s15.5 20.167 23.5 37.5l81 -25c-12.667 -46 -28.334 -80.5 -47.001 -103.5s-44.334 -34.5 -77.001 -34.5
c-22.667 0 -50.834 6.5 -84.501 19.5s-55.5 19.5 -65.5 19.5c-14.667 0 -25.834 -3.83301 -33.501 -11.5s-15.5 -20.167 -23.5 -37.5z" />
    <glyph glyph-name="Euro" unicode="&#x20ac;" horiz-adv-x="790" 
d="M24 0l300 705h142l300 -705h-161l-64 157h-296l-64 -157h-157zM300 293h186l-93 227zM429 755v135h146v-135h-146zM215 755v135h146v-135h-146z" />
    <glyph glyph-name="trademark" unicode="&#x2122;" horiz-adv-x="664" 
d="M331 -12c-82.667 0 -151.5 26.833 -206.5 80.5s-82.5 119.167 -82.5 196.5v2c0 78 27.833 144 83.5 198s124.834 81 207.501 81s151.5 -26.833 206.5 -80.5s82.5 -119.167 82.5 -196.5v-2c0 -78 -27.833 -144 -83.5 -198s-124.834 -81 -207.501 -81zM333 119
c42 0 75.667 14 101 42s38 62.667 38 104v2c0 40.667 -13.167 75.5 -39.5 104.5s-60.166 43.5 -101.499 43.5c-42 0 -75.667 -14 -101 -42s-38 -62.667 -38 -104v-2c0 -40.667 13.167 -75.5 39.5 -104.5s60.166 -43.5 101.499 -43.5zM137 595l123 157h144l123 -157h-117
l-79 66l-79 -66h-115z" />
    <glyph glyph-name="nonmarkingreturn" horiz-adv-x="333" 
 />
    <glyph glyph-name="NameMe.129" horiz-adv-x="790" 
d="M24 0l292 687c-28 24.667 -42 53.667 -42 87v2c0 31.333 12.167 58.5 36.5 81.5s52.5 34.5 84.5 34.5s60.167 -11.5 84.5 -34.5s36.5 -50.167 36.5 -81.5v-2c0 -33.333 -14 -62.333 -42 -87l292 -687h-161l-64 157h-296l-64 -157h-157zM395 713
c16.667 0 31.167 6 43.5 18s18.5 26.333 18.5 43v2c0 16.667 -6.16699 31 -18.5 43s-26.833 18 -43.5 18s-31.167 -6 -43.5 -18s-18.5 -26.333 -18.5 -43v-2c0 -16.667 6.16699 -31 18.5 -43s26.833 -18 43.5 -18zM300 293h186l-93 227z" />
    <glyph glyph-name="NameMe.141" horiz-adv-x="571" 
d="M281 -173l-126.999 53.001l82 120c-58 17.333 -104.833 50.333 -140.5 99s-53.5 104 -53.5 166v2c0 77.333 26.667 143.166 80 197.499s120.333 81.5 201 81.5c89.333 0 160.666 -30 213.999 -90l-93 -100c-37.333 39.333 -78 59 -122 59
c-37.333 0 -68.333 -14.333 -93 -43s-37 -63 -37 -103v-2c0 -42 12.5 -77.167 37.5 -105.5s57.833 -42.5 98.5 -42.5c42 0 83 19 123 57l89 -90c-55.333 -60 -120 -92.333 -194 -97z" />
    <glyph glyph-name="NameMe.143" horiz-adv-x="613" 
d="M322 -12c-81.333 0 -148.334 25.833 -201.001 77.5s-79 118.167 -79 199.5v2c0 78 25 144 75 198s113.333 81 190 81c84.667 0 149.334 -28 194.001 -84s67 -125 67 -207c0 -8 -0.666992 -21.333 -2 -40h-373c7.33301 -34 22.333 -60 45 -78s51.334 -27 86.001 -27
c47.333 0 90.666 18.333 129.999 55l87 -77c-54 -66.667 -127 -100 -219 -100zM190.999 310l229.001 -0.00195312c-4.66699 34.667 -16.834 62.334 -36.501 83.001s-45.167 31 -76.5 31c-30.667 0 -56.167 -10.167 -76.5 -30.5s-33.5 -48.166 -39.5 -83.499zM250 594.998
l-128 120l131 57l113 -177h-116z" />
    <glyph glyph-name="NameMe.144" horiz-adv-x="613" 
d="M322 -12c-81.333 0 -148.334 25.833 -201.001 77.5s-79 118.167 -79 199.5v2c0 78 25 144 75 198s113.333 81 190 81c84.667 0 149.334 -28 194.001 -84s67 -125 67 -207c0 -8 -0.666992 -21.333 -2 -40h-373c7.33301 -34 22.333 -60 45 -78s51.334 -27 86.001 -27
c47.333 0 90.666 18.333 129.999 55l87 -77c-54 -66.667 -127 -100 -219 -100zM190.999 310l229.001 -0.00195312c-4.66699 34.667 -16.834 62.334 -36.501 83.001s-45.167 31 -76.5 31c-30.667 0 -56.167 -10.167 -76.5 -30.5s-33.5 -48.166 -39.5 -83.499zM111 594.998
l123 157h144l123 -157h-117l-79 66l-79 -66h-115z" />
    <glyph glyph-name="NameMe.157" horiz-adv-x="623" 
d="M246 -10c-57.333 0 -102 17.667 -134 53s-48 84 -48 146v347h152v-299c0 -35.333 8 -62.333 24 -81s38.667 -28 68 -28s52.5 9.33301 69.5 28s25.5 45.667 25.5 81v299h152v-536h-152v76c-44.667 -57.333 -97 -86 -157 -86zM269 595l-128 120l131 57l113 -177h-116z" />
  </font>
</defs></svg>
